{
    "_id": "inUlZWE1isqnTRc5",
    "data": {
        "attributes": {
            "ac": {
                "value": 10
            },
            "hardness": 0,
            "hasHealth": false,
            "hp": {
                "details": "",
                "max": 0,
                "temp": 0,
                "tempmax": 0,
                "value": 0
            },
            "stealth": {
                "details": "(master)",
                "value": 23
            }
        },
        "creatureType": "",
        "details": {
            "description": "A robe-clad spirit rises out of the floor, pointing an accusing finger.",
            "disable": "DC 36 Arcana, Nature, Occultism, or Religion (master) to convince the spirit that the target's magical knowledge is too great to be trifled with",
            "isComplex": false,
            "level": {
                "value": 11
            },
            "reset": "1 hour",
            "routine": ""
        },
        "saves": {
            "fortitude": {
                "saveDetail": "",
                "value": 0
            },
            "reflex": {
                "saveDetail": "",
                "value": 0
            },
            "will": {
                "saveDetail": "",
                "value": 0
            }
        },
        "source": {
            "value": "Pathfinder Gamemastery Guide"
        },
        "statusEffects": [],
        "traits": {
            "ci": [],
            "di": {
                "custom": "",
                "selected": {},
                "value": []
            },
            "dr": [],
            "dv": [],
            "rarity": {
                "value": "common"
            },
            "size": {
                "value": "med"
            },
            "traits": {
                "custom": "",
                "value": [
                    "haunt"
                ]
            }
        }
    },
    "effects": [],
    "flags": {},
    "img": "systems/pf2e/icons/default-icons/hazard.svg",
    "items": [
        {
            "_id": "e90G0Brsf6uhlGp6",
            "data": {
                "actionCategory": {
                    "value": ""
                },
                "actionType": {
                    "value": "reaction"
                },
                "actions": {
                    "value": null
                },
                "description": {
                    "value": "<p data-visibility=\"gm\"><strong>Trigger</strong> A creature that is currently affected by a beneficial spell approaches within 30 feet of the abjurer.</p>\n<p><strong>Effect</strong> Envying the fame and magical prowess of others, the jealous abjurer attempts to engineer a catastrophic failure in the highest-level beneficial spell currently affecting its target. It attempts a counteract check with a +26 modifier. If the counteract check succeeds, the spell is dispelled, and the creature it had been affecting takes [[/r {4d12+30}[force]]]{4d12+30 force damage} as the spell violently implodes (<span data-pf2-check=\"reflex\" data-pf2-dc=\"32\" data-pf2-traits=\"abjuration,arcane,damaging-effect\" data-pf2-label=\"Rend Magic DC\" data-pf2-show-dc=\"gm\">basic Reflex</span> save).</p>"
                },
                "requirements": {
                    "value": ""
                },
                "rules": [],
                "slug": null,
                "source": {
                    "value": ""
                },
                "traits": {
                    "custom": "",
                    "rarity": {
                        "value": "common"
                    },
                    "value": [
                        "abjuration",
                        "arcane"
                    ]
                },
                "trigger": {
                    "value": ""
                },
                "weapon": {
                    "value": ""
                }
            },
            "effects": [],
            "flags": {},
            "img": "systems/pf2e/icons/actions/Reaction.webp",
            "name": "Rend Magic",
            "sort": 100000,
            "type": "action"
        }
    ],
    "name": "Jealous Abjurer",
    "token": {
        "disposition": 0,
        "height": 1,
        "img": "systems/pf2e/icons/default-icons/hazard.svg",
        "name": "Jealous Abjurer",
        "width": 1
    },
    "type": "hazard"
}
