{
    "_id": "AJh5ex99aV6VTggg",
    "data": {
        "active": true,
        "alsoApplies": {
            "linked": [],
            "unlinked": []
        },
        "base": "Flat-Footed",
        "description": {
            "value": "<p>You're distracted or otherwise unable to focus your full attention on defense. You take a -2 circumstance penalty to AC. Some effects give you the flat-footed condition only to certain creatures or against certain attacks. Others-especially conditions-can make you universally flat-footed against everything. If a rule doesn't specify that the condition applies only to certain circumstances, it applies to all of them; for example, many effects simply say \"The target is flat-footed.\"</p>"
        },
        "duration": {
            "perpetual": true,
            "text": "",
            "value": 0
        },
        "group": "",
        "hud": {
            "img": {
                "useStatusName": true,
                "value": "systems/pf2e/icons/conditions-2/flat-footed.webp"
            },
            "selectable": true,
            "statusName": "flatFooted"
        },
        "modifiers": [
            {
                "group": "ac",
                "type": "circumstance",
                "value": -2
            }
        ],
        "overrides": [],
        "references": {
            "children": [],
            "immunityFrom": [],
            "overriddenBy": [],
            "overrides": []
        },
        "removable": true,
        "rules": [],
        "source": {
            "value": ""
        },
        "sources": {
            "hud": true
        },
        "traits": {
            "custom": "",
            "rarity": {
                "value": "common"
            },
            "value": []
        },
        "value": {
            "immutable": false,
            "isValued": false,
            "modifiers": [],
            "value": null
        }
    },
    "effects": [],
    "flags": {
        "pf2e": {
            "condition": true
        }
    },
    "img": "systems/pf2e/icons/conditions/flat-footed.webp",
    "name": "Flat-Footed",
    "type": "condition"
}
