{
    "_id": "LWoPiYHAyLp8pvYx",
    "data": {
        "boosts": {
            "0": {
                "value": [
                    "cha",
                    "con"
                ]
            },
            "1": {
                "value": [
                    "cha",
                    "con",
                    "dex",
                    "int",
                    "str",
                    "wis"
                ]
            }
        },
        "description": {
            "value": "<p>Your gifted tongue, friendly demeanor, and deep knowledge of Broken Tusk culture and traditions make you an ideal recruiter for new followers. Whenever Broken Tusks come upon weak, weary, or wandering souls, you're often the first sent to meet these folks and determine if they would be a good fit for the following.</p>\n<p>Choose two ability boosts. One must be to <strong>Constitution</strong> or <strong>Charisma</strong>, and one is a free ability boost.</p>\n<p>You're trained in the Diplomacy skill and the Hillcross Lore skill. You gain the @Compendium[pf2e.feats-srd.Group Impression]{Group Impression} skill feat.</p>"
        },
        "items": {
            "saayb": {
                "id": "KpFetnUqTiweypZk",
                "img": "systems/pf2e/icons/features/feats/feats.webp",
                "level": 1,
                "name": "Group Impression",
                "pack": "pf2e.feats-srd"
            }
        },
        "rules": [],
        "source": {
            "value": "Pathfinder: Quest for the Frozen Flame Player's Guide"
        },
        "trainedLore": "Hillcross",
        "trainedSkills": {
            "custom": "",
            "value": [
                "dip"
            ]
        },
        "traits": {
            "custom": "",
            "rarity": {
                "value": "uncommon"
            },
            "value": []
        }
    },
    "effects": [],
    "flags": {},
    "img": "systems/pf2e/icons/default-icons/background.svg",
    "name": "Broken Tusk Recruiter",
    "type": "background"
}
