{
    "_id": "vfVpgUuieLdPoqY7",
    "data": {
        "baseItem": null,
        "brokenThreshold": {
            "value": 0
        },
        "bulkCapacity": {
            "value": ""
        },
        "collapsed": {
            "value": false
        },
        "containerId": {
            "value": null
        },
        "description": {
            "value": "<p>A wreath of flames dances around the rim of this golden crown. You gain resistance 15 to fire.</p>\n<hr />\n<p><strong>Activate</strong> <span class=\"pf2-icon\">r</span> command</p>\n<p><strong>Frequency</strong> once per day</p>\n<p><strong>Trigger</strong> You take fire damage</p>\n<p><strong>Effect</strong> You absorb some of the flame that would harm you. Increase your fire resistance from the crown from 15 to 35. Just after taking any remaining fire damage, you regain a number of Hit Points equal to 35 or the fire damage dealt by the triggering attack before damage resistance, whichever is less.</p>"
        },
        "equipped": {
            "value": false
        },
        "equippedBulk": {
            "value": ""
        },
        "hardness": {
            "value": 0
        },
        "hp": {
            "value": 0
        },
        "identification": {
            "misidentified": {},
            "status": "identified",
            "unidentified": {
                "data": {
                    "description": {
                        "value": ""
                    }
                },
                "img": "",
                "name": ""
            }
        },
        "invested": {
            "value": null
        },
        "level": {
            "value": 16
        },
        "maxHp": {
            "value": 0
        },
        "negateBulk": {
            "value": "0"
        },
        "preciousMaterial": {
            "value": null
        },
        "preciousMaterialGrade": {
            "value": null
        },
        "price": {
            "value": "10000 gp"
        },
        "quantity": {
            "value": 1
        },
        "rules": [
            {
                "key": "Resistance",
                "type": "fire",
                "value": 15
            }
        ],
        "size": {
            "value": "med"
        },
        "source": {
            "value": "Pathfinder Lost Omens: The Grand Bazaar"
        },
        "stackGroup": {
            "value": ""
        },
        "traits": {
            "custom": "",
            "rarity": {
                "value": "uncommon"
            },
            "value": [
                "evocation",
                "invested",
                "magical"
            ]
        },
        "usage": {
            "value": "worn"
        },
        "weight": {
            "value": "-"
        }
    },
    "effects": [],
    "flags": {},
    "img": "systems/pf2e/icons/default-icons/equipment.svg",
    "name": "Crown of the Fire Eater (Major)",
    "type": "equipment"
}
