{
    "_id": "ZvIEJCY60fHqzl6r",
    "data": {
        "MAP": {
            "value": ""
        },
        "baseItem": "dagger",
        "bonus": {
            "value": 1
        },
        "bonusDamage": {
            "value": 0
        },
        "brokenThreshold": {
            "value": 0
        },
        "bulkCapacity": {
            "value": ""
        },
        "category": "simple",
        "collapsed": {
            "value": false
        },
        "containerId": {
            "value": ""
        },
        "damage": {
            "damageType": "piercing",
            "dice": 1,
            "die": "d4",
            "value": ""
        },
        "description": {
            "value": "<p>The serrated blade of this <em>+1 striking</em> dagger has a greenish tinge, and the hilt is sculpted to look like the head of a serpent about to strike.</p>\n<p>When you critically succeed at an attack roll with the dagger of venom, the target becomes sickened 1 unless it succeeds at a DC 19 Fortitude save. This is a poison effect.</p>\n<p>In addition, you can activate the dagger to poison a creature with a more potent poison.</p>\n<p><strong>Activate</strong> <span class=\"pf2-icon\">F</span> Interact</p>\n<p><strong>Frequency</strong> once per day</p>\n<p><strong>Trigger</strong> You damage a creature with the <em>dagger of venom</em></p>\n<p><strong>Effect</strong> You poison the creature you hit with dagger venom.</p>\n<p><strong>Dagger Venom</strong> (poison)</p>\n<p><strong>Saving Throw</strong> Fortitude DC 21</p>\n<p><strong>Maximum Duration</strong> 4 rounds.</p>\n<p><strong>Stage 1</strong> 1d8 poison damage and enfeebled 1.</p>"
        },
        "equipped": {
            "value": false
        },
        "equippedBulk": {
            "value": ""
        },
        "group": "knife",
        "hands": {
            "value": ""
        },
        "hardness": {
            "value": 0
        },
        "hp": {
            "value": 0
        },
        "identification": {
            "misidentified": {},
            "status": "identified",
            "unidentified": {
                "data": {
                    "description": {
                        "value": ""
                    }
                },
                "img": "",
                "name": ""
            }
        },
        "invested": {
            "value": false
        },
        "level": {
            "value": 5
        },
        "maxHp": {
            "value": 0
        },
        "negateBulk": {
            "value": "0"
        },
        "potencyRune": {
            "value": 1
        },
        "preciousMaterial": {
            "value": null
        },
        "preciousMaterialGrade": {
            "value": null
        },
        "price": {
            "value": "150 gp"
        },
        "property1": {
            "critDamage": "",
            "critDamageType": "",
            "critDice": null,
            "critDie": "",
            "criticalConditionType": "",
            "criticalConditionValue": null,
            "damageType": "",
            "dice": null,
            "die": "",
            "strikeConditionType": "",
            "strikeConditionValue": null,
            "value": ""
        },
        "propertyRune1": {
            "value": null
        },
        "propertyRune2": {
            "value": null
        },
        "propertyRune3": {
            "value": null
        },
        "propertyRune4": {
            "value": null
        },
        "quantity": {
            "value": 1
        },
        "range": null,
        "reload": {
            "value": ""
        },
        "rules": [],
        "size": {
            "value": "med"
        },
        "source": {
            "value": "Pathfinder Core Rulebook"
        },
        "specific": {
            "material": null,
            "runes": {
                "potency": 1,
                "striking": "striking"
            },
            "value": true
        },
        "splashDamage": {
            "value": null
        },
        "stackGroup": {
            "value": ""
        },
        "strikingRune": {
            "value": "striking"
        },
        "traits": {
            "custom": "",
            "rarity": {
                "value": "common"
            },
            "value": [
                "agile",
                "finesse",
                "magical",
                "necromancy",
                "poison",
                "thrown-10",
                "versatile-s"
            ]
        },
        "usage": {
            "value": "held-in-one-hand"
        },
        "weight": {
            "value": "L"
        }
    },
    "effects": [],
    "flags": {},
    "img": "systems/pf2e/icons/equipment/weapons/specific-magic-weapons/dagger-of-venom.webp",
    "name": "Dagger of Venom",
    "type": "weapon"
}
