{
    "_id": "yzgMOspvPTLDe6Ln",
    "data": {
        "baseItem": null,
        "brokenThreshold": {
            "value": 0
        },
        "bulkCapacity": {
            "value": ""
        },
        "collapsed": {
            "value": false
        },
        "containerId": {
            "value": null
        },
        "description": {
            "value": "<p>This white, slender rod bears intricately carved reliefs of magnificent animals that bow and dance to some unseen commander. The baton enables you to command constructs.</p>\n<hr />\n<p><strong>Activate</strong> <span class=\"pf2-icon\">2</span> command, Interact (enchantment, incapacitation);</p>\n<p><strong>Frequency</strong> once per day;</p>\n<p><strong>Effect</strong> You take control of a construct. This has the effects of <em>@Compendium[pf2e.spells-srd.Dominate]{Dominate}</em> with a DC of 30, but it affects only constructs. It lacks the mental trait and functions on mindless constructs. It also ignores any golem antimagic the target might have. The effect's duration endsif the baton is destroyed or leaves your possession for at least 1 minute, and you can issue commands to the target only while holding the baton.</p>\n<hr />\n<p><strong>Activate</strong> <span class=\"pf2-icon\">1</span> Interact;</p>\n<p><strong>Frequency</strong> once per round;</p>\n<p><strong>Effect</strong> You closely direct the actions of one construct you control and can see within 60 feet. That construct gains a +1 status bonus to attack rolls, damage rolls, and saving throws (except saving throws against the ivory baton).</p>\n<p>@Compendium[pf2e.equipment-effects.Effect: Ivory Baton]{Effect: Ivory Baton}</p>"
        },
        "equipped": {
            "value": false
        },
        "equippedBulk": {
            "value": ""
        },
        "hardness": {
            "value": 0
        },
        "hp": {
            "value": 0
        },
        "identification": {
            "misidentified": {},
            "status": "identified",
            "unidentified": {
                "data": {
                    "description": {
                        "value": ""
                    }
                },
                "img": "",
                "name": ""
            }
        },
        "invested": {
            "value": null
        },
        "level": {
            "value": 13
        },
        "maxHp": {
            "value": 0
        },
        "negateBulk": {
            "value": "0"
        },
        "preciousMaterial": {
            "value": null
        },
        "preciousMaterialGrade": {
            "value": null
        },
        "price": {
            "value": "2500 gp"
        },
        "quantity": {
            "value": 1
        },
        "rules": [],
        "size": {
            "value": "med"
        },
        "source": {
            "value": "Pathfinder Lost Omens: Monsters of Myth"
        },
        "stackGroup": {
            "value": ""
        },
        "traits": {
            "custom": "",
            "rarity": {
                "value": "rare"
            },
            "value": [
                "enchantment",
                "magical"
            ]
        },
        "usage": {
            "value": "held-in-one-hand"
        },
        "weight": {
            "value": "1"
        }
    },
    "effects": [],
    "flags": {},
    "img": "systems/pf2e/icons/default-icons/equipment.svg",
    "name": "Ivory Baton",
    "type": "equipment"
}
