{
    "_id": "Mnj6K8aC7itqSIdg",
    "data": {
        "baseItem": null,
        "brokenThreshold": {
            "value": 0
        },
        "bulkCapacity": {
            "value": ""
        },
        "collapsed": {
            "value": false
        },
        "containerId": {
            "value": null
        },
        "description": {
            "value": "<p>A <em>private workshop</em> is a model building about the size of a music box that resembles a smithy, tannery, alchemy lab, or other crafting facility.</p>\n<p>@Compendium[pf2e.equipment-effects.Effect: Private Workshop (Using for Crafting)]{Effect: Private Workshop (Using for Crafting)}</p>\n<hr />\n<p><strong>Activate</strong> (1 minute) command, envision, Interact</p>\n<p><strong>Effect</strong> The model workshop transforms into a full‑sized square workshop of the represented type. The walls are 15 feet wide and the ceiling is 10 feet high. The workshop is stocked with mundane tools and can be used to Craft items appropriate to the workshop with a +1 item bonus, but you must supply any raw materials.</p>\n<p>You can pull on a cord hanging from the workshop's ceiling as an Interact action to revert the private workshop to its model form.</p>"
        },
        "equipped": {
            "value": false
        },
        "equippedBulk": {
            "value": ""
        },
        "hardness": {
            "value": 0
        },
        "hp": {
            "value": 0
        },
        "identification": {
            "misidentified": {},
            "status": "identified",
            "unidentified": {
                "data": {
                    "description": {
                        "value": ""
                    }
                },
                "img": "",
                "name": ""
            }
        },
        "invested": {
            "value": null
        },
        "level": {
            "value": 6
        },
        "maxHp": {
            "value": 0
        },
        "negateBulk": {
            "value": "0"
        },
        "preciousMaterial": {
            "value": null
        },
        "preciousMaterialGrade": {
            "value": null
        },
        "price": {
            "value": "200 gp"
        },
        "quantity": {
            "value": 1
        },
        "rules": [],
        "size": {
            "value": "med"
        },
        "source": {
            "value": "Pathfinder Lost Omens: The Grand Bazaar"
        },
        "stackGroup": {
            "value": ""
        },
        "traits": {
            "custom": "",
            "rarity": {
                "value": "uncommon"
            },
            "value": [
                "conjuration",
                "magical",
                "structure"
            ]
        },
        "usage": {
            "value": "held-in-one-hand"
        },
        "weight": {
            "value": "L"
        }
    },
    "effects": [],
    "flags": {},
    "img": "systems/pf2e/icons/default-icons/equipment.svg",
    "name": "Private Workshop",
    "type": "equipment"
}
