{
    "_id": "XgO0MTOXdpbfdzr6",
    "data": {
        "baseItem": null,
        "brokenThreshold": {
            "value": 0
        },
        "bulkCapacity": {
            "value": ""
        },
        "collapsed": {
            "value": false
        },
        "containerId": {
            "value": ""
        },
        "description": {
            "value": "<p><strong>Devil</strong> @Compendium[pf2e.pathfinder-bestiary.Erinys]{Erinys}</p>\n<p><strong>Decipher Writing</strong> Nature, Religion</p>\n<hr />\n<p>Profane powers of vengeance are yours to inflict.</p>\n<p><strong>Benefit</strong> When a creature deals damage to you, you can call out for retribution as a reaction. Until the end of your next turn, you gain a +1 status bonus to attack rolls against that creature.</p>\n<p><strong>Payment</strong> If you wound a creature, it is your duty to kill it. If a creature survives for 24 hours after you deal it damage, you are @Compendium[pf2e.conditionitems.Doomed]{Doomed 1}. If you already have the doomed condition, it increases by 1.</p>\n<p><strong>Hidden Condition</strong> No more than once per year, the erinys can compel you to attack a creature of the erinys's choice that you can see. You are @Compendium[pf2e.conditionitems.Controlled]{Controlled} by the erinys and must fight the chosen creature for 1 minute.</p>\n<p><strong>Termination Clause</strong> The contract demands that you enact bloody vengeance against anyone who has ever wronged you, but the nature of the vengeance is vague. You can end the contract by creating effigies of everyone you believe has ever wronged you, bleeding upon them all at once (at least 1 Hit Point per effigy), and destroying them.</p>"
        },
        "equipped": {
            "value": false
        },
        "equippedBulk": {
            "value": ""
        },
        "hardness": {
            "value": 0
        },
        "hp": {
            "value": 0
        },
        "identification": {
            "misidentified": {},
            "status": "identified",
            "unidentified": {
                "data": {
                    "description": {
                        "value": ""
                    }
                },
                "img": "",
                "name": ""
            }
        },
        "invested": {
            "value": false
        },
        "level": {
            "value": 8
        },
        "maxHp": {
            "value": 0
        },
        "negateBulk": {
            "value": "0"
        },
        "preciousMaterial": {
            "value": ""
        },
        "preciousMaterialGrade": {
            "value": ""
        },
        "price": {
            "value": "0 gp"
        },
        "quantity": {
            "value": 1
        },
        "rules": [],
        "size": {
            "value": "med"
        },
        "source": {
            "value": "Pathfinder #164: Hands of the Devil"
        },
        "stackGroup": {
            "value": ""
        },
        "traits": {
            "custom": "",
            "rarity": {
                "value": "rare"
            },
            "value": [
                "contract",
                "enchantment",
                "invested",
                "magical"
            ]
        },
        "usage": {
            "value": "held-in-one-hand"
        },
        "weight": {
            "value": "-"
        }
    },
    "effects": [],
    "flags": {},
    "img": "systems/pf2e/icons/equipment/contracts/infernal-contracts/right-of-retribution.webp",
    "name": "Right of Retribution",
    "type": "equipment"
}
