{
    "_id": "KGA495XLcsDVonEt",
    "data": {
        "baseItem": null,
        "brokenThreshold": {
            "value": 0
        },
        "bulkCapacity": {
            "value": ""
        },
        "collapsed": {
            "value": false
        },
        "containerId": {
            "value": null
        },
        "description": {
            "value": "<p>In its raw state, this silvery ore is either scalding hot or freezing cold. Metallurgists disagree over whether siccatite is two related substances or one substance that determines its temperature output via some unknown process. Whatever the reason, the extreme temperature of the material means it must be handled carefully. Hot siccatite can easily ignite flammables such as paper and dry brush, and cold siccatite left in moist areas quickly surrounds itself with a thick layer of ice.</p>\n<p>A creature that comes into physical contact with a significant amount of siccatite takes 1 energy damage for each round of continued contact (either fire or cold damage, for hot and cold siccatite respectively).</p>\n<h2>Siccatite Items</h2>\n<table class=\"pf2-table\">\n<thead>\n<tr>\n<th>Siccatite Items</th>\n<th>Hardness</th>\n<th>HP</th>\n<th>BT</th>\n</tr>\n</thead>\n<tbody>\n<tr>\n<td><strong>Thin Items</strong></td>\n<td> </td>\n<td> </td>\n<td> </td>\n</tr>\n<tr>\n<td>Standard-grade</td>\n<td>6</td>\n<td>24</td>\n<td>12</td>\n</tr>\n<tr>\n<td>High-grade</td>\n<td>10</td>\n<td>40</td>\n<td>20</td>\n</tr>\n<tr>\n<td><strong>Items</strong></td>\n<td> </td>\n<td> </td>\n<td> </td>\n</tr>\n<tr>\n<td>Standard-grade</td>\n<td>10</td>\n<td>40</td>\n<td>20</td>\n</tr>\n<tr>\n<td>High-grade</td>\n<td>13</td>\n<td>52</td>\n<td>26</td>\n</tr>\n<tr>\n<td><strong>Structures</strong></td>\n<td> </td>\n<td> </td>\n<td> </td>\n</tr>\n<tr>\n<td>Standard-grade</td>\n<td>20</td>\n<td>80</td>\n<td>40</td>\n</tr>\n<tr>\n<td>High-grade</td>\n<td>26</td>\n<td>104</td>\n<td>52</td>\n</tr>\n</tbody>\n</table>"
        },
        "equipped": {
            "value": false
        },
        "equippedBulk": {
            "value": ""
        },
        "hardness": {
            "value": 0
        },
        "hp": {
            "value": 0
        },
        "identification": {
            "misidentified": {},
            "status": "identified",
            "unidentified": {
                "data": {
                    "description": {
                        "value": ""
                    }
                },
                "img": "",
                "name": ""
            }
        },
        "invested": {
            "value": null
        },
        "level": {
            "value": 0
        },
        "maxHp": {
            "value": 0
        },
        "negateBulk": {
            "value": "0"
        },
        "preciousMaterial": {
            "value": null
        },
        "preciousMaterialGrade": {
            "value": null
        },
        "price": {
            "value": "500 gp"
        },
        "quantity": {
            "value": 1
        },
        "rules": [],
        "size": {
            "value": "med"
        },
        "source": {
            "value": "Pathfinder Lost Omens: The Grand Bazaar"
        },
        "stackGroup": {
            "value": ""
        },
        "traits": {
            "custom": "",
            "rarity": {
                "value": "rare"
            },
            "value": [
                "precious"
            ]
        },
        "usage": {
            "value": "held-in-one-hand"
        },
        "weight": {
            "value": "L"
        }
    },
    "effects": [],
    "flags": {},
    "img": "systems/pf2e/icons/default-icons/equipment.svg",
    "name": "Siccatite Chunk",
    "type": "equipment"
}
