{
    "_id": "TrX8Op3qZzFvX4Df",
    "data": {
        "attributes": {
            "ac": {
                "value": 24
            },
            "hardness": 14,
            "hasHealth": true,
            "hp": {
                "details": "",
                "max": 56,
                "temp": 0,
                "value": 56
            },
            "stealth": {
                "details": "",
                "value": 15
            }
        },
        "creatureType": "",
        "details": {
            "description": "<p>The chasm below shifts and ripples, transforming into a vast, gaping mouth filled with countless sharp fangs. A puckered, rasping tongue lances up from the noxious gulping depths below to lash and taste. Two words boom up from the vast throat below: \"Iö Tchekuth!\"</p>",
            "disable": "<p>DC 28 Occultism or Religion (to exorcise the startling phantasm)</p>",
            "isComplex": false,
            "level": {
                "value": 6
            },
            "reset": "<p>The haunt resets after 24 hours and is destroyed permanently if Ioseff's ghost is put to rest.</p>",
            "routine": ""
        },
        "saves": {
            "fortitude": {
                "saveDetail": "",
                "value": 17
            },
            "reflex": {
                "saveDetail": "",
                "value": 11
            },
            "will": {
                "saveDetail": "",
                "value": 18
            }
        },
        "source": {
            "value": "Pathfinder Adventure: Malevolence"
        },
        "statusEffects": [],
        "traits": {
            "ci": [],
            "di": {
                "custom": "",
                "selected": {},
                "value": [
                    "precision",
                    "critical-hits",
                    "object-immunities"
                ]
            },
            "dr": [],
            "dv": [
                {
                    "label": "Positive",
                    "type": "positive",
                    "value": "5"
                }
            ],
            "rarity": {
                "value": "common"
            },
            "size": {
                "value": "med"
            },
            "traits": {
                "custom": "",
                "value": [
                    "haunt"
                ]
            }
        }
    },
    "effects": [],
    "flags": {},
    "img": "systems/pf2e/icons/default-icons/hazard.svg",
    "items": [
        {
            "_id": "fQ7ZhBvjw23IrtUN",
            "data": {
                "actionCategory": {
                    "value": "offensive"
                },
                "actionType": {
                    "value": "reaction"
                },
                "actions": {
                    "value": null
                },
                "description": {
                    "value": "<p data-visibility=\"gm\"><strong>Trigger</strong> a creature crosses the chasm</p>\n<p><strong>Effect</strong> A vast, fanged maw appears to open below, and a long rasping tongue lurches up to attack the triggering creature, who must attempt a <span data-pf2-check=\"will\" data-pf2-traits=\"emotion,enchantment,fear,mental,occult\" data-pf2-label=\"Hungry Tongue DC\" data-pf2-dc=\"24\" data-pf2-show-dc=\"gm\">Will</span> save.</p>\n<div data-visibility=\"gm\"><hr />\n<p><strong>Critical Success</strong> The creature realizes the haunt is a frightening phantasm that can't actually hurt them and is unharmed.</p>\n<p><strong>Success</strong> The creature dodges the rasping tongue but falls from the bridge as a result, taking 10 damage from the fall (the creature can Grab an Edge with a successful <span data-pf2-check=\"reflex\" data-pf2-traits=\"damaging-effect\" data-pf2-label=\"Grab an Edge DC\" data-pf2-dc=\"24\" data-pf2-show-dc=\"gm\">Reflex</span> save).</p>\n<p><strong>Failure</strong> For a brief moment, the creature feels the awful touch of the rasping tongue as it brushes against them, licking away memories and causing the creature to become @Compendium[pf2e.conditionitems.Stupefied]{Stupefied 1} for 24 hours. The creature then falls (as success above).</p>\n<p><strong>Critical Failure</strong> The creature feels the tongue wrap around them and then experiences the awfulness of being pulled downward for what seems like days, but in fact, only an instant passes. The creature becomes @Compendium[pf2e.conditionitems.Stupefied]{Stupefied 2} for 24 hours, during which time they can't remember their name. The creature also increases the value of their malevolence condition by 1 and then falls (as success above).</p>\n</div>"
                },
                "requirements": {
                    "value": ""
                },
                "rules": [],
                "slug": null,
                "source": {
                    "value": ""
                },
                "traits": {
                    "custom": "",
                    "rarity": {
                        "value": "common"
                    },
                    "value": [
                        "mental",
                        "emotion",
                        "enchantment",
                        "fear",
                        "occult"
                    ]
                },
                "trigger": {
                    "value": ""
                },
                "weapon": {
                    "value": ""
                }
            },
            "effects": [],
            "flags": {},
            "img": "systems/pf2e/icons/actions/Reaction.webp",
            "name": "Hungry Tongue",
            "sort": 0,
            "type": "action"
        }
    ],
    "name": "Mouth of Tchekuth",
    "token": {
        "disposition": 0,
        "height": 1,
        "img": "systems/pf2e/icons/default-icons/hazard.svg",
        "name": "Mouth of Tchekuth",
        "width": 1
    },
    "type": "hazard"
}
