{
    "_id": "8eMGYNilWV3dFAUI",
    "data": {
        "actionCategory": {
            "value": ""
        },
        "actionType": {
            "value": "passive"
        },
        "actions": {
            "value": null
        },
        "description": {
            "value": "<p>You regain double the normal number of Hit Points when resting (meaning you regain double your Constitution modifier multiplied by your level). The healing you gain from long-term rest is similarly doubled. In addition, you can focus this healing energy to accelerate your body's natural healing processes even further.</p>\n<hr />\n<p><strong>Activate</strong> <span class=\"pf2-icon\">2</span> envision</p>\n<p><strong>Frequency</strong> once per day</p>\n<p><strong>Effect</strong> You gain @Compendium[pf2e.bestiary-ability-glossary-srd.Fast Healing]{Fast Healing 3} for 1 minute. This amount of fast healing increases by 1 for every 2 levels you have beyond 5th level.</p>"
        },
        "featType": {
            "value": "deityboon"
        },
        "level": {
            "value": 5
        },
        "location": "",
        "prerequisites": {
            "value": []
        },
        "rules": [],
        "source": {
            "value": "Pathfinder #151: The Show Must Go On"
        },
        "traits": {
            "custom": "",
            "rarity": {
                "value": "common"
            },
            "value": [
                "healing",
                "magical"
            ]
        }
    },
    "effects": [],
    "flags": {},
    "img": "systems/pf2e/icons/features/classes/great-fortitude.webp",
    "name": "Resonant Reflection: Reflection of Life",
    "type": "feat"
}
