{
    "_id": "PIAR4xFEhkWlWg8D",
    "data": {
        "attributes": {
            "ac": {
                "value": 0
            },
            "hardness": 0,
            "hasHealth": true,
            "hp": {
                "details": "",
                "max": 0,
                "temp": 0,
                "value": 0
            },
            "stealth": {
                "details": "",
                "value": 4
            }
        },
        "creatureType": "",
        "details": {
            "description": "<p>This section of grass-strewn ground hides a pool of sticky mud 10 feet across.</p>",
            "disable": "<p><span class=\"pf2-icon\">2</span> <span data-pf2-check=\"crafting\" data-pf2-traits=\"environmental\" data-pf2-label=\"Create a makeshift plank DC\" data-pf2-dc=\"15\" data-pf2-show-dc=\"gm\">Crafting</span> or <span class=\"pf2-icon\">2</span> <span data-pf2-check=\"thievery\" data-pf2-traits=\"environmental\" data-pf2-label=\"Create a makeshift plank DC\" data-pf2-dc=\"18\" data-pf2-show-dc=\"gm\">Thievery</span> to create a makeshift plank across the hidden bog; creatures can then traverse the hazard's area without stepping into the mud.</p>",
            "isComplex": false,
            "level": {
                "value": -1
            },
            "reset": "<p>Creatures can still step into the mud after the trap is revealed, but the area containing the mud is obvious.</p>",
            "routine": ""
        },
        "saves": {
            "fortitude": {
                "saveDetail": "",
                "value": 0
            },
            "reflex": {
                "saveDetail": "",
                "value": 0
            },
            "will": {
                "saveDetail": "",
                "value": 0
            }
        },
        "source": {
            "value": "Pathfinder Bounty #6: The Road from Otari"
        },
        "statusEffects": [],
        "traits": {
            "ci": [],
            "di": {
                "custom": "",
                "selected": {},
                "value": []
            },
            "dr": [],
            "dv": [],
            "rarity": {
                "value": "common"
            },
            "size": {
                "value": "med"
            },
            "traits": {
                "custom": "",
                "value": [
                    "environmental",
                    "trap"
                ]
            }
        }
    },
    "effects": [],
    "flags": {},
    "img": "systems/pf2e/icons/default-icons/hazard.svg",
    "items": [
        {
            "_id": "J1h1q77QXlZlIewC",
            "data": {
                "actionCategory": {
                    "value": "offensive"
                },
                "actionType": {
                    "value": "reaction"
                },
                "actions": {
                    "value": null
                },
                "description": {
                    "value": "<p data-visibility=\"gm\"><strong>Trigger</strong> A creatures enters the 10-foot-square area of the hidden bog</p>\n<p><strong>Effect</strong> The creatures squelches into two feet of sticky mud, ending its move action. The mud imposes a -10 foot penalty to the creature's Speed until it is wiped off (requiring <span class=\"pf2-icon\">3</span>).</p>"
                },
                "requirements": {
                    "value": ""
                },
                "rules": [],
                "slug": null,
                "source": {
                    "value": ""
                },
                "traits": {
                    "custom": "",
                    "rarity": {
                        "value": "common"
                    },
                    "value": []
                },
                "trigger": {
                    "value": ""
                },
                "weapon": {
                    "value": ""
                }
            },
            "effects": [],
            "flags": {},
            "img": "systems/pf2e/icons/actions/Reaction.webp",
            "name": "Collapse",
            "sort": 0,
            "type": "action"
        }
    ],
    "name": "Hidden Bog",
    "token": {
        "disposition": 0,
        "height": 1,
        "img": "systems/pf2e/icons/default-icons/hazard.svg",
        "name": "Hidden Bog",
        "width": 1
    },
    "type": "hazard"
}
