{
    "_id": "fmUBaLklyVmNt3VD",
    "data": {
        "actionCategory": {
            "value": "defensive"
        },
        "actionType": {
            "value": "reaction"
        },
        "actions": {
            "value": null
        },
        "description": {
            "value": "<p data-visibility=\"gm\"><strong>Trigger</strong> A creature attempts to move away from the graveknight</p>\n<p><strong>Effect</strong> The graveknight's armor animates and attempts to Grab the triggering creature. It makes an Athletics check to @Compendium[pf2e.actionspf2e.Grapple]{Grapple} using the graveknight's Athletics modifier - 2. The armor can continue to Grapple the creature normally.</p>\n<p>Since the armor is grappling the creature, the graveknight doesn't need a free hand to do so.</p>"
        },
        "requirements": {
            "value": ""
        },
        "rules": [
            {
                "key": "ToggleProperty",
                "property": "flags.pf2e.rollOptions.all.clutchingArmor"
            },
            {
                "key": "FlatModifier",
                "predicate": {
                    "all": [
                        "action:grapple",
                        "clutchingArmor"
                    ]
                },
                "selector": "athletics",
                "value": -2
            }
        ],
        "source": {
            "value": "Pathfinder #172: Secrets of the Temple-City"
        },
        "traits": {
            "custom": "",
            "rarity": {
                "value": "common"
            },
            "value": [
                "arcane",
                "transmutation"
            ]
        },
        "trigger": {
            "value": ""
        }
    },
    "effects": [],
    "flags": {},
    "img": "systems/pf2e/icons/actions/Reaction.webp",
    "name": "(Graveknight) Clutching Armor",
    "type": "action"
}
