{
    "_id": "qlNOqsfJH2gj7DCs",
    "data": {
        "actionCategory": {
            "value": "offensive"
        },
        "actionType": {
            "value": "passive"
        },
        "actions": {
            "value": null
        },
        "description": {
            "value": "<p>The Kallas Devil controls any water she touches. When the Kallas Devil is in water, she can cast <em>@Compendium[pf2e.spells-srd.Hydraulic Push]{Hydraulic Push}</em> as an occult innate spell at will.</p>"
        },
        "requirements": {
            "value": ""
        },
        "rules": [],
        "source": {
            "value": "Pathfinder Lost Omens: Monsters of Myth"
        },
        "traits": {
            "custom": "",
            "rarity": {
                "value": "common"
            },
            "value": []
        },
        "trigger": {
            "value": ""
        }
    },
    "effects": [],
    "flags": {},
    "img": "systems/pf2e/icons/actions/Passive.webp",
    "name": "(Kallas Devil) Waterfall Torrent",
    "type": "action"
}
