{
    "_id": "9wX6EFimVFYFZjD7",
    "data": {
        "actionCategory": {
            "value": "defensive"
        },
        "actionType": {
            "value": "passive"
        },
        "actions": {
            "value": null
        },
        "description": {
            "value": "<p>Beneath the plates of bone and ice on Ulgrem-Axaan flow the viscous remains of its vital fluids. Creatures coming into physical contact with this fluid must succeed at a <span data-pf2-check=\"fortitude\" data-pf2-traits=\"disease\" data-pf2-label=\"Ichor Coating DC\" data-pf2-dc=\"22\" data-pf2-show-dc=\"gm\">Fortitude</span> save or become infected with @Compendium[pf2e.bestiary-family-ability-glossary.(Ghoul) Ghoul Fever]{Ghoul Fever}.</p>"
        },
        "requirements": {
            "value": ""
        },
        "rules": [],
        "source": {
            "value": "Pathfinder Lost Omens: Monsters of Myth"
        },
        "traits": {
            "custom": "",
            "rarity": {
                "value": "common"
            },
            "value": [
                "disease"
            ]
        },
        "trigger": {
            "value": ""
        }
    },
    "effects": [],
    "flags": {},
    "img": "systems/pf2e/icons/actions/Passive.webp",
    "name": "(Ulgrem-Axaan) Ichor Coating",
    "type": "action"
}
