{
    "_id": "7RcrHguk3riysqgZ",
    "content": "<table class=\"pf2-table\">\n<thead>\n<tr>\n<th>\n<h3><strong>Name</strong></h3>\n</th>\n<th>\n<h3><strong>Crit Effect</strong></h3>\n</th>\n<th>\n<h3><strong>Type</strong></h3>\n</th>\n</tr>\n</thead>\n<tbody>\n<tr>\n<td>\n<h3>Breathless</h3>\n</td>\n<td>\n<h3>The target is fatigued.</h3>\n</td>\n<td>\n<h3>Bludgeoning</h3>\n</td>\n</tr>\n<tr>\n<td>\n<h3>Spun Around</h3>\n</td>\n<td>\n<h3>The target is flat-footed until the end of its next turn.</h3>\n</td>\n<td>\n<h3>Piercing</h3>\n</td>\n</tr>\n<tr>\n<td>\n<h3>Sliced Hand</h3>\n</td>\n<td>\n<h3>Normal damage. Until healed, the target is enfeebled 1, clumsy 1, and can't used one of its hands (determined randomly by the GM).</h3>\n</td>\n<td>\n<h3>Slashing</h3>\n</td>\n</tr>\n<tr>\n<td>\n<h3>Combustion</h3>\n</td>\n<td>\n<h3>If this is a fire bomb or spell, the target takes triple damage and 1d6 persistent fire damage. Any other bomb or spell deals double damage.</h3>\n</td>\n<td>\n<h3>Bomb or Spell</h3>\n</td>\n</tr>\n</tbody>\n</table>\n<h3 style=\"text-align: left;\"> </h3>",
    "flags": {},
    "name": "Critical Hit Deck #40",
    "permission": {
        "default": 0
    }
}
