{
    "_id": "QuhotSkof0ao2kJo",
    "content": "<table class=\"pf2-table\">\n<thead>\n<tr>\n<th>\n<h3><strong>Name</strong></h3>\n</th>\n<th>\n<h3><strong>Crit Effect</strong></h3>\n</th>\n<th>\n<h3><strong>Type</strong></h3>\n</th>\n</tr>\n</thead>\n<tbody>\n<tr>\n<td>Broken Haft</td>\n<td>Your weapon's current Hit Points are reduced to its Broken Threshold. If already broken, the weapon takes 3d6 damage, ignoring Hardness. If your weapon is a reach weapon, it loses reach.</td>\n<td>\n<h3>Melee</h3>\n</td>\n</tr>\n<tr>\n<td>All Thumbs</td>\n<td>Until healed, you are clumsy 1.</td>\n<td>\n<h3>Ranged</h3>\n</td>\n</tr>\n<tr>\n<td>Whiff</td>\n<td>You hit yourself istead of the target.</td>\n<td>\n<h3>Unarmed</h3>\n</td>\n</tr>\n<tr>\n<td>Draining Magic</td>\n<td>You are drained 1.</td>\n<td>\n<h3>Spell</h3>\n</td>\n</tr>\n</tbody>\n</table>\n<h3 style=\"text-align: left;\"> </h3>",
    "flags": {},
    "name": "Critical Fumble Deck #50",
    "permission": {
        "default": 0
    }
}
