{
    "_id": "PcKhzFKtzNvtBfdI",
    "data": {
        "attributes": {
            "ac": {
                "value": 20
            },
            "hardness": 7,
            "hasHealth": true,
            "hp": {
                "details": "",
                "max": 60,
                "temp": 0,
                "value": 60
            },
            "stealth": {
                "details": null,
                "value": -5
            }
        },
        "creatureType": "",
        "details": {
            "description": "<p>The hypnotic ticking of this metronome captures the attention of all who approach it.</p>",
            "disable": "<p><span data-pf2-check=\"thievery\" data-pf2-traits=\"magical,trap\" data-pf2-label=\"Interfere with the Metronome's Mechanisms DC\" data-pf2-dc=\"18\" data-pf2-show-dc=\"gm\">Thievery</span> or <span data-pf2-check=\"crafting\" data-pf2-traits=\"magical,trap\" data-pf2-label=\"Interfere with the Metronome's Mechanisms DC\" data-pf2-dc=\"18\" data-pf2-show-dc=\"gm\">Crafting</span> to interfere with the metronome's mechanisms, <span data-pf2-check=\"athletics\" data-pf2-traits=\"magical,trap\" data-pf2-label=\"Prevent the Hand from Moving DC\" data-pf2-dc=\"22\" data-pf2-show-dc=\"gm\">Athletics</span> to grip the hand and prevent it from moving, or <span data-pf2-check=\"arcana\" data-pf2-traits=\"magical,trap\" data-pf2-label=\"Interpret the Magic Runes DC\" data-pf2-dc=\"22\" data-pf2-show-dc=\"gm\">Arcana</span> or <span data-pf2-check=\"occultism\" data-pf2-traits=\"magical,trap\" data-pf2-label=\"Interpret the Magic Runes DC\" data-pf2-dc=\"22\" data-pf2-show-dc=\"gm\">Occultism</span> to interpret the magic runes on the metronome and counteract its effects. Three successful checks are required to fully disable the metronome, ending its ticking.</p>",
            "isComplex": false,
            "level": {
                "value": 4
            },
            "reset": "",
            "routine": ""
        },
        "saves": {
            "fortitude": {
                "saveDetail": "",
                "value": 14
            },
            "reflex": {
                "saveDetail": "",
                "value": 8
            },
            "will": {
                "saveDetail": "",
                "value": 0
            }
        },
        "source": {
            "value": "Pathfinder Society Scenario #3-05: Inheritor's Rite"
        },
        "statusEffects": [],
        "traits": {
            "ci": [],
            "di": {
                "custom": "",
                "selected": {},
                "value": [
                    "critical-hits",
                    "object-immunities",
                    "precision"
                ]
            },
            "dr": [],
            "dv": [],
            "rarity": {
                "value": "uncommon"
            },
            "size": {
                "value": "med"
            },
            "traits": {
                "custom": "",
                "value": [
                    "magical",
                    "trap"
                ]
            }
        }
    },
    "effects": [],
    "flags": {},
    "img": "systems/pf2e/icons/default-icons/hazard.svg",
    "items": [
        {
            "_id": "8yf2azDgIFK4OjDT",
            "data": {
                "actionCategory": {
                    "value": "offensive"
                },
                "actionType": {
                    "value": "reaction"
                },
                "actions": {
                    "value": null
                },
                "description": {
                    "value": "<p><strong>Trigger</strong> A creature starts the metronome</p>\n<p><strong>Effect</strong> During the next 10 minutes, any creature who approaches within 30 feet of the metronome, other than the one who activated it, must attempt a <span data-pf2-check=\"will\" data-pf2-traits=\"auditory,occult,magical,trap\" data-pf2-label=\"Enchanting Beat DC\" data-pf2-dc=\"18\" data-pf2-show-dc=\"gm\">Will</span> save, with the following effects.</p>\n<hr />\n<p><strong>Critical Success</strong> The creature is unaffected by the metronome and acts normally.</p>\n<p><strong>Success</strong> The creature is @Compendium[pf2e.conditionitems.Fascinated]{Fascinated} for as long as it can hear the metronome and remains within 30 feet of it.</p>\n<p><strong>Failure</strong> The creature is @Compendium[pf2e.conditionitems.Slowed]{Slowed 1} and is fascinated for as long as it can hear the metronome and remains within 30 feet of it. While fascinated in this way, the creature can't willingly move more than 30 feet away from the metronome until it stops ticking. The creature is then @Compendium[pf2e.conditionitems.Fatigued]{Fatigued} for 1 hour.</p>\n<p><strong>Critical Failure</strong> The creature is slowed 1 and is fascinated for as long as it can hear the metronome and remains within 30 feet of it. While fascinated in this way, the creature can't willingly move more than 30 feet away from the metronome until it stops ticking. The creature is then fatigued for 2 hours.</p>"
                },
                "requirements": {
                    "value": ""
                },
                "rules": [],
                "slug": null,
                "source": {
                    "value": ""
                },
                "traits": {
                    "custom": "",
                    "rarity": {
                        "value": "common"
                    },
                    "value": [
                        "auditory",
                        "occult"
                    ]
                },
                "trigger": {
                    "value": ""
                }
            },
            "effects": [],
            "flags": {},
            "img": "systems/pf2e/icons/actions/Reaction.webp",
            "name": "Enchanting Beat",
            "sort": 0,
            "type": "action"
        }
    ],
    "name": "Manipulator's Metronome (3-4)",
    "token": {
        "disposition": 0,
        "height": 1,
        "img": "systems/pf2e/icons/default-icons/hazard.svg",
        "name": "Manipulator's Metronome (1-2)",
        "width": 1
    },
    "type": "hazard"
}
