{
    "_id": "zDuuHVeHgd175pGf",
    "data": {
        "badge": null,
        "description": {
            "value": "<p>The creature gains a +2 item bonus to initiative checks.</p>"
        },
        "duration": {
            "expiry": "turn-start",
            "sustained": false,
            "unit": "hours",
            "value": 1
        },
        "level": {
            "value": 7
        },
        "rules": [
            {
                "key": "FlatModifier",
                "selector": "initiative",
                "type": "item",
                "value": 2
            },
            {
                "key": "FlatModifier",
                "predicate": {
                    "any": [
                        "emotion",
                        "mental"
                    ]
                },
                "selector": "saving-throw",
                "type": "item",
                "value": 2
            }
        ],
        "source": {
            "value": ""
        },
        "start": {
            "initiative": null,
            "value": 0
        },
        "target": null,
        "tokenIcon": {
            "show": true
        },
        "traits": {
            "custom": "",
            "rarity": {
                "value": "common"
            },
            "value": []
        }
    },
    "effects": [],
    "flags": {},
    "img": "systems/pf2e/icons/default-icons/effect.svg",
    "name": "Effect: Succubus Kiss (Stage 2)",
    "type": "effect"
}
