{
    "_id": "AlL9GtlTldbqNoVm",
    "content": "<h1>Calistria (The Savored Sting) [CN]</h1><p>As symbolized by the three daggers of her religious symbol, Calistria has three aspects: lust, revenge, and trickery. Silver-tongued and charming, she is a master of weaving insults into compliments and laying intricate groundwork for retribution at its finest. She is a goddess of vengeance, but it would be a mistake to assume that means she pursues justice. Calistria is fickle, shifting her loyalties and interests as her whims take her-though she never forgets a slight, and any who think she has forgiven will surely find it is only a matter of time before they are targeted by a long-term plot of revenge to lay them thoroughly low.</p><p><strong>Edicts</strong> pursue your personal freedom, seek hedonistic thrills, take revenge</p><p><strong>Anathema</strong> become too consumed by love or a need for revenge, let a slight go unanswered</p><p><strong>Areas of Concern</strong> lust, revenge, and trickery</p><p><strong>Follower Alignments</strong> CG, CN, CE</span></p><p></span></p><h2>Devotee Benefits</h2><div><div><strong>Divine Ability</strong> Dexterity or Charisma</div><div><strong>Divine Font</strong> harm or heal</div><div><strong>Divine Skill</strong> Deception</div><div><strong>Favored Weapon</strong> whip</div><div><strong>Domains</strong> pain, passion, secrecy, trickery</div><div><strong>Cleric Spells</strong> 1st: charm, 3rd: enthrall, 6th: mislead</div></div><h2>Divine Intercession</h2><p>Signs of favor or displeasure from the Savored Sting are sometimes subtle and at other times incontrovertible. Calistria typically grants her boon to those on the path toward great vengeance and curses those who slight her followers, particularly if those followers are sex workers, though her fickle heart rarely commits to any absolute guidelines.</p><p><strong>Minor Boon</strong> Calistria smiles on the riskiest deceptions. Once, when you roll a failure on a check to Lie, you get a critical success instead. Calistria typically grants this boon for an extremely consequential lie.</p><p><strong>Moderate Boon</strong> A foot-long wasp finds and befriends you. It serves you as a familiar as long as you maintain Calistria's grace. The wasp always has the burrower and flier familiar abilities.</p><p><strong>Major Boon</strong> Calistria guides you towards vengeance. You always know the direction and distance towards the nearest creature that has wronged you and thus far gone unpunished.</p><p><strong>Minor Curse</strong> Whenever a new person desires vengeance against you, you suffer a painful sting and are afflicted with giant wasp venom at stage 1.</p><p><strong>Moderate Curse</strong> People react as though you're insulting them, even in normal conversation. Whenever you attempt to Make an Impression, the outcome is one degree of success worse than the result of your roll. If you converse with someone over a long enough period of time but don't attempt to Make an Impression, you still insult them, and you suffer the effect of a critical failure to Make an Impression.</p><p><strong>Major Curse</strong> You have wronged those unable to obtain revenge for themselves, and Calistria's curse grants their revenge its own life. Whenever another creature imagines vengeance upon you but can't pursue that vengeance because you are too powerful, well connected, or otherwise untouchable, a creature of roughly your level manifests out of their imagination and performs their desired revenge. Once the revenge is complete or the manifestation is destroyed, the summoned creature vanishes from existence.</span></p>",
    "flags": {},
    "name": "Calistria",
    "permission": {
        "default": 0
    }
}
