{
    "_id": "bzKBUK6CH8tuLCfo",
    "data": {
        "actionCategory": {
            "value": ""
        },
        "actionType": {
            "value": "passive"
        },
        "actions": {
            "value": null
        },
        "description": {
            "value": "<p>Your Red Mantis magical training has improved. Add two 2nd-level spells to your Red Mantis assassin spellbook. You gain a 2nd-level spell slot that you can use to prepare a spell from your Red Mantis assassin spellbook.</p>\n<p>At 8th level, add two 3rd-level spells to your Red Mantis assassin spellbook. You gain a 3rd-level spell slot that you can use to prepare a spell from your Red Mantis assassin spellbook.</p>\n<p>At 10th level, add two 4th-level spells to your Red Mantis assassin spellbook. You gain a 4th-level spell slot that you can use to prepare a spell from your Red Mantis assassin spellbook.</p>"
        },
        "featType": {
            "value": "archetype"
        },
        "level": {
            "value": 6
        },
        "prerequisites": {
            "value": [
                {
                    "value": "Basic Red Mantis Magic"
                }
            ]
        },
        "rules": [],
        "source": {
            "value": "Pathfinder Lost Omens: World Guide"
        },
        "traits": {
            "custom": "",
            "rarity": {
                "value": "common"
            },
            "value": [
                "archetype"
            ]
        }
    },
    "effects": [],
    "flags": {},
    "img": "systems/pf2e/icons/features/feats/feats.webp",
    "name": "Advanced Red Mantis Magic",
    "type": "feat"
}
