{
    "_id": "kFpVgcqREAfDmjXp",
    "data": {
        "actionCategory": {
            "value": ""
        },
        "actionType": {
            "value": "passive"
        },
        "actions": {
            "value": null
        },
        "description": {
            "value": "<p>Your eidolon's attack evolves.</p>\n<p>Choose one of your eidolon's starting melee unarmed attacks. It gains one of the following traits, chosen when you gain the feat: disarm, grapple, nonlethal, shove, trip, or versatile bludgeoning, piercing, or slashing.</p>"
        },
        "featType": {
            "value": "class"
        },
        "level": {
            "value": 1
        },
        "location": "",
        "prerequisites": {
            "value": []
        },
        "rules": [],
        "source": {
            "value": ""
        },
        "traits": {
            "custom": "",
            "rarity": {
                "value": "common"
            },
            "value": [
                "evolution",
                "summoner"
            ]
        }
    },
    "effects": [],
    "flags": {},
    "img": "systems/pf2e/icons/features/feats/feats.webp",
    "name": "Advanced Weaponry",
    "type": "feat"
}
