{
    "_id": "rJ1XxUEACaQA9Lyo",
    "data": {
        "actionCategory": {
            "value": ""
        },
        "actionType": {
            "value": "passive"
        },
        "actions": {
            "value": null
        },
        "description": {
            "value": "<p><strong>Access</strong> @Compendium[pf2e.backgrounds.Bright Lion]{Bright Lion} background</p>\n<hr />\n<p>You become trained in your choice of Deception or Diplomacy and in Mzali Lore; if you were already trained, you become an expert instead. You incorporate enough worship of Walkena in your daily life to avoid suspicion. You typically don't need to @Compendium[pf2e.actionspf2e.Lie]{Lie} or @Compendium[pf2e.actionspf2e.Impersonate]{Impersonate} to pass yourself off as a worshipper of Walkena. Against careful inspection, you gain a +4 circumstance bonus to Deception checks specifically to pass yourself off as a version of yourself faithful to Walkena.</p>\n<hr />\n<p><strong>Special</strong> You can't select another dedication feat until you have gained two other feats from the Bright Lion archetype.</p>"
        },
        "featType": {
            "value": "archetype"
        },
        "level": {
            "value": 2
        },
        "location": "",
        "prerequisites": {
            "value": [
                {
                    "value": "member of the Bright Lions"
                },
                {
                    "value": "not a worshipper of Walkena"
                },
                {
                    "value": "trained in Stealth"
                },
                {
                    "value": "Bright Lion Background"
                }
            ]
        },
        "rules": [
            {
                "key": "FlatModifier",
                "label": "Disguised as faithful to Walkena",
                "predicate": {
                    "all": [
                        "disguised-as-faithful-to-walkena"
                    ]
                },
                "selector": "deception",
                "slug": "bright-lion-disguise",
                "type": "circumstance",
                "value": 4
            }
        ],
        "source": {
            "value": "Pathfinder Lost Omens: Legends"
        },
        "traits": {
            "custom": "",
            "rarity": {
                "value": "uncommon"
            },
            "selected": {},
            "value": [
                "archetype",
                "dedication"
            ]
        }
    },
    "effects": [],
    "flags": {},
    "img": "systems/pf2e/icons/features/feats/feats.webp",
    "name": "Bright Lion Dedication",
    "type": "feat"
}
