{
    "_id": "EpBG4CFMNSZQx7vI",
    "data": {
        "actionCategory": {
            "value": ""
        },
        "actionType": {
            "value": "reaction"
        },
        "actions": {
            "value": null
        },
        "description": {
            "value": "<p><strong>Trigger</strong> A creature Casts a Spell that you have prepared</p>\n<hr />\n<p>When a foe Casts a Spell and you can see its manifestations, you can use your own magic to disrupt it. You expend a prepared spell to counter the triggering creature's casting of that same spell. You lose your spell slot as if you had cast the triggering spell. You then attempt to counteract the triggering spell.</p>"
        },
        "featType": {
            "value": "class"
        },
        "level": {
            "value": 1
        },
        "prerequisites": {
            "value": []
        },
        "rules": [],
        "source": {
            "value": "Pathfinder Advanced Player's Guide"
        },
        "traits": {
            "custom": "",
            "rarity": {
                "value": "common"
            },
            "value": [
                "abjuration",
                "arcane",
                "witch",
                "wizard"
            ]
        }
    },
    "effects": [],
    "flags": {},
    "img": "systems/pf2e/icons/features/feats/feats.webp",
    "name": "Counterspell (Prepared)",
    "type": "feat"
}
