{
    "_id": "w7dOgJvqAqyqSeSQ",
    "data": {
        "actionCategory": {
            "value": ""
        },
        "actionType": {
            "value": "passive"
        },
        "actions": {
            "value": null
        },
        "description": {
            "value": "<p>You can call in devils to assist your efforts. You gain <em>@Compendium[pf2e.spells-srd.Summon Fiend]{Summon Fiend}</em> as an innate spell of a tradition of your choice, which you can cast once per day. When you cast this spell, you can summon only creatures that have the devil trait. At 16th level and every 2 levels thereafter, the spell is heightened by 1 level (to a maximum of 8th level when you reach 20th level).</p>"
        },
        "featType": {
            "value": "bonus"
        },
        "level": {
            "value": 0
        },
        "location": "",
        "prerequisites": {
            "value": [
                {
                    "value": "Order of the Gate"
                }
            ]
        },
        "rules": [],
        "source": {
            "value": ""
        },
        "traits": {
            "custom": "",
            "rarity": {
                "value": "common"
            },
            "value": []
        }
    },
    "effects": [],
    "flags": {},
    "img": "systems/pf2e/icons/features/feats/feats.webp",
    "name": "Devil Allies",
    "type": "feat"
}
