{
    "_id": "SPyvwsiSghySIEw2",
    "data": {
        "actionCategory": {
            "value": ""
        },
        "actionType": {
            "value": "passive"
        },
        "actions": {
            "value": null
        },
        "description": {
            "value": "<p>As a member of dragonkind, you project unflappable confidence (that collapses catastrophically against the deadliest foes).</p>\n<p>When you roll a success on a saving throw against a fear effect, you get a critical success instead. When you roll a failure against a fear effect, you get a critical failure instead.</p>\n<p>In addition, when you attempt to @Compendium[pf2e.actionspf2e.Demoralize]{Demoralize} a foe of your level or lower, you gain a +1 circumstance bonus to the Intimidation check.</p>"
        },
        "featType": {
            "value": "ancestry"
        },
        "level": {
            "value": 1
        },
        "prerequisites": {
            "value": []
        },
        "rules": [],
        "source": {
            "value": "Pathfinder Advanced Player's Guide"
        },
        "traits": {
            "custom": "",
            "rarity": {
                "value": "common"
            },
            "value": [
                "kobold"
            ]
        }
    },
    "effects": [],
    "flags": {},
    "img": "systems/pf2e/icons/features/feats/feats.webp",
    "name": "Dragon's Presence",
    "type": "feat"
}
