{
    "_id": "czdqBRpzpml23la9",
    "data": {
        "actionCategory": {
            "value": ""
        },
        "actionType": {
            "value": "passive"
        },
        "actions": {
            "value": null
        },
        "description": {
            "value": "<p>Your link with your eidolon is so intense that you continuously reinforce its abilities. You are permanently @Compendium[pf2e.conditionitems.Quickened]{Quickened}; you can use your extra action only to cast <em>boost eidolon</em> or <em>reinforce eidolon</em>.</p>\n<p>While in exploration mode, you can declare that you are also continually casting <em>boost eidolon</em> or <em>reinforce eidolon</em> even while using a different exploration activity. If you do, even before your first turn in a combat encounter, that cantrip is active as if you had cast it on your previous turn.</p>"
        },
        "featType": {
            "value": "class"
        },
        "level": {
            "value": 20
        },
        "location": "",
        "prerequisites": {
            "value": []
        },
        "rules": [],
        "source": {
            "value": ""
        },
        "traits": {
            "custom": "",
            "rarity": {
                "value": "common"
            },
            "value": [
                "summoner"
            ]
        }
    },
    "effects": [],
    "flags": {},
    "img": "systems/pf2e/icons/features/feats/feats.webp",
    "name": "Eternal Boost",
    "type": "feat"
}
