{
    "_id": "a6xUSibsRaclbSz3",
    "data": {
        "actionCategory": {
            "value": ""
        },
        "actionType": {
            "value": "passive"
        },
        "actions": {
            "value": null
        },
        "description": {
            "value": "<p>Your eidolon has enhanced senses. It gains a +2 circumstance bonus to Perception, and can't be flanked except by creatures that are higher level than it.</p>\n<p>It can see @Compendium[pf2e.conditionitems.Invisible]{Invisible} creatures and objects; they appear translucent and are @Compendium[pf2e.conditionitems.Concealed]{Concealed}.</p>\n<p>When your eidolon moves within 30 feet of an illusion that can be disbelieved, the GM rolls a secret check to disbelieve it, even if your eidolon didn't spend an action to Interact.</p>"
        },
        "featType": {
            "value": "class"
        },
        "level": {
            "value": 16
        },
        "location": "",
        "prerequisites": {
            "value": []
        },
        "rules": [],
        "source": {
            "value": ""
        },
        "traits": {
            "custom": "",
            "rarity": {
                "value": "common"
            },
            "value": [
                "evolution",
                "summoner"
            ]
        }
    },
    "effects": [],
    "flags": {},
    "img": "systems/pf2e/icons/features/feats/feats.webp",
    "name": "Ever-Vigilant Senses",
    "type": "feat"
}
