{
    "_id": "CZQgH17ZxoBiVXLa",
    "data": {
        "actionCategory": {
            "value": ""
        },
        "actionType": {
            "value": "action"
        },
        "actions": {
            "value": 2
        },
        "description": {
            "value": "<p>You inscribe your true name on your <em>ka stone</em>, as well as oaths to gods and pharaohs, and embed it in your forehead in a special ritual with a sphinx or with a living monolith who already has this feat. The <em>ka stone</em> is an invested magic item that you automatically invest each day. It can't be removed without your permission, nor can it be dispelled, and you can never lose investiture in the ka stone. Its Bulk is negligible.</p>\n<p>The ka stone grants you a +1 item bonus to saves against death effects and negative effects, which increases to +2 at 8th level, +3 at 14th level, and +4 at 20th level.</p>\n<p>@Compendium[pf2e.equipment-srd.Ka Stone]{Ka Stone}</p>\n<hr />\n<p><strong>Activate</strong> <span class=\"pf2-icon\">2</span> (envision), or a different activation if otherwise specified</p>\n<p><strong>Frequency</strong> a number of times each day equal to the number of class feats you have from the Living Monolith archetype</p>\n<p><strong>Effect</strong> You cast <em>@Compendium[pf2e.spells-srd.Enlarge]{Enlarge}</em> on yourself or use one of the other activated abilities granted by a later Living Monolith feat.</p>"
        },
        "featType": {
            "value": "archetype"
        },
        "level": {
            "value": 4
        },
        "location": "",
        "prerequisites": {
            "value": [
                {
                    "value": "Living Monolith Dedication"
                },
                {
                    "value": "a sphinx or living monolith with this feat performs a ritual with you"
                }
            ]
        },
        "rules": [],
        "source": {
            "value": "Pathfinder Lost Omens: World Guide"
        },
        "traits": {
            "custom": "",
            "rarity": {
                "value": "rare"
            },
            "value": [
                "archetype"
            ]
        }
    },
    "effects": [],
    "flags": {},
    "img": "systems/pf2e/icons/features/feats/feats.webp",
    "name": "Ka Stone Ritual",
    "type": "feat"
}
