{
    "_id": "wPjNjyh60fYKrDXl",
    "data": {
        "actionCategory": {
            "value": ""
        },
        "actionType": {
            "value": "passive"
        },
        "actions": {
            "value": null
        },
        "description": {
            "value": "<p>Your ability to summon extends past your other spellcasting. When you sacrifice a 9th-level spell slot to gain two summoning slots using Master Summoner, you can use those slots to cast summoning spells heightened to 10th level.</p>\n<p>You can't use these spell slots for any purpose other than casting the summoning spells, and you don't count as having 10th-level spell slots for other abilities or rules.</p>"
        },
        "featType": {
            "value": "class"
        },
        "level": {
            "value": 20
        },
        "location": "",
        "prerequisites": {
            "value": [
                {
                    "value": "Master Summoner"
                }
            ]
        },
        "rules": [],
        "source": {
            "value": ""
        },
        "traits": {
            "custom": "",
            "rarity": {
                "value": "common"
            },
            "value": [
                "summoner"
            ]
        }
    },
    "effects": [],
    "flags": {},
    "img": "systems/pf2e/icons/features/feats/feats.webp",
    "name": "Legendary Summoner",
    "type": "feat"
}
