{
    "_id": "Ih85PWZSVTwU0xkI",
    "data": {
        "actionCategory": {
            "value": ""
        },
        "actionType": {
            "value": "passive"
        },
        "actions": {
            "value": null
        },
        "description": {
            "value": "<p>The impulse to survive and continue fighting resonates deep within you. You gain a circumstance bonus to damage rolls on your melee Strikes equal to twice the sum of your wounded and doomed conditions (to a maximum of a +8 circumstance bonus to damage) whenever you have one or both conditions.</p>"
        },
        "featType": {
            "value": "ancestry"
        },
        "level": {
            "value": 13
        },
        "location": "",
        "prerequisites": {
            "value": []
        },
        "rules": [],
        "source": {
            "value": "Pathfinder Lost Omens: Ancestry Guide"
        },
        "traits": {
            "custom": "",
            "rarity": {
                "value": "common"
            },
            "value": [
                "orc"
            ]
        }
    },
    "effects": [],
    "flags": {},
    "img": "systems/pf2e/icons/features/feats/feats.webp",
    "name": "Lifeblood's Call",
    "type": "feat"
}
