{
    "_id": "IQ9C7glCXVgYecz1",
    "data": {
        "actionCategory": {
            "value": ""
        },
        "actionType": {
            "value": "passive"
        },
        "actions": {
            "value": null
        },
        "description": {
            "value": "<p>You've battled the fiendish power within your nature and come out on top; whatever you decide to do with your life, for good or evil, will be your choice and your choice alone. This struggle has granted you powerful resistance against the divine.</p>\n<p>You gain a +1 circumstance bonus to all saving throws against divine effects.</p>"
        },
        "featType": {
            "value": "ancestry"
        },
        "level": {
            "value": 9
        },
        "location": "",
        "prerequisites": {
            "value": []
        },
        "rules": [
            {
                "key": "FlatModifier",
                "label": "Light From Darkness",
                "predicate": {
                    "all": [
                        "divine"
                    ]
                },
                "selector": "saving-throw",
                "type": "circumstance",
                "value": 1
            }
        ],
        "source": {
            "value": "Pathfinder Advanced Player's Guide"
        },
        "traits": {
            "custom": "",
            "rarity": {
                "value": "common"
            },
            "value": [
                "tiefling"
            ]
        }
    },
    "effects": [],
    "flags": {},
    "img": "systems/pf2e/icons/features/feats/feats.webp",
    "name": "Light From Darkness",
    "type": "feat"
}
