{
    "_id": "ADgFB8hjUgcXS4bF",
    "data": {
        "actionCategory": {
            "value": ""
        },
        "actionType": {
            "value": "passive"
        },
        "actions": {
            "value": null
        },
        "description": {
            "value": "<p>Your familiar's supernatural spirit has outgrown its corporeal body. You can conduct a special 10-minute activity to reselect certain familiar abilities, switching one or more of the following abilities for other abilities on this list: amphibious, burrower, climber, darkvision, fast movement, manual dexterity, resistance, and scent.</p>\n<p>You can reselect only familiar abilities you would normally be able to reselect each day, not required familiar abilities for your familiar. You can't remove an ability that is required for another ability your familiar has (for instance, you can't remove manual dexterity if the familiar has lab assistant).</p>"
        },
        "featType": {
            "value": "archetype"
        },
        "level": {
            "value": 8
        },
        "prerequisites": {
            "value": [
                {
                    "value": "Familiar Master Dedication"
                }
            ]
        },
        "rules": [],
        "source": {
            "value": "Pathfinder Advanced Player's Guide"
        },
        "traits": {
            "custom": "",
            "rarity": {
                "value": "common"
            },
            "value": [
                "archetype"
            ]
        }
    },
    "effects": [],
    "flags": {},
    "img": "systems/pf2e/icons/features/feats/feats.webp",
    "name": "Mutable Familiar",
    "type": "feat"
}
