{
    "_id": "hc4lWhWekIVb0wjL",
    "data": {
        "actionCategory": {
            "value": ""
        },
        "actionType": {
            "value": "passive"
        },
        "actions": {
            "value": null
        },
        "description": {
            "value": "<p>Years of packing for travel have taught you how to cram vast quantities into small spaces. You can fit an additional 50% of the listed Bulk capacity into mundane storage containers or vehicles.</p>\n<p>For example, you can fit 6 Bulk in a backpack, or 12 Bulk in a chest. This doesn't alter the items' Bulk, nor does it change how much you can store in a magical or extradimensional storage space, such as a @Compendium[pf2e.equipment-srd.Bag of Holding (Type I)]{Bag of Holding}.</p>"
        },
        "featType": {
            "value": "ancestry"
        },
        "level": {
            "value": 1
        },
        "prerequisites": {
            "value": []
        },
        "rules": [],
        "source": {
            "value": "Pathfinder Advanced Player's Guide"
        },
        "traits": {
            "custom": "",
            "rarity": {
                "value": "common"
            },
            "value": [
                "ratfolk"
            ]
        }
    },
    "effects": [],
    "flags": {},
    "img": "systems/pf2e/icons/features/feats/feats.webp",
    "name": "Pack Rat",
    "type": "feat"
}
