{
    "_id": "FiG3XBDTgrOmF3sI",
    "data": {
        "actionCategory": {
            "value": ""
        },
        "actionType": {
            "value": "passive"
        },
        "actions": {
            "value": null
        },
        "description": {
            "value": "<p>Spines, flame jets, and holy blasts are just some of the ways your eidolon might strike from a distance. It gains a ranged unarmed attack with a range increment of 30 feet that deals 1d4 fire damage and has the magical and propulsive traits.</p>"
        },
        "featType": {
            "value": "class"
        },
        "level": {
            "value": 2
        },
        "location": "",
        "prerequisites": {
            "value": []
        },
        "rules": [
            {
                "category": "unarmed",
                "damage": {
                    "base": {
                        "damageType": "fire",
                        "dice": 1,
                        "die": "d4"
                    }
                },
                "key": "Strike",
                "label": "Ranged Combatant",
                "range": 30,
                "traits": [
                    "range-increment-30",
                    "magical",
                    "propulsive"
                ]
            }
        ],
        "source": {
            "value": ""
        },
        "traits": {
            "custom": "",
            "rarity": {
                "value": "common"
            },
            "value": [
                "evolution",
                "summoner"
            ]
        }
    },
    "effects": [],
    "flags": {},
    "img": "systems/pf2e/icons/features/feats/feats.webp",
    "name": "Ranged Combatant (Fire)",
    "type": "feat"
}
