{
    "_id": "dWGa6cFSVrASTEfd",
    "data": {
        "actionCategory": {
            "value": ""
        },
        "actionType": {
            "value": "passive"
        },
        "actions": {
            "value": null
        },
        "description": {
            "value": "<p>Your body produces a nearly endless supply of hard seedpods. You gain a seedpod ranged unarmed attack with a range increment of 10 feet that deals 1d4 bludgeoning damage; these Strikes have the manipulate trait. On a critical hit, a seedpod bursts, issuing forth a tangle of vegetation that imposes a -10-foot circumstance penalty on the target's Speed for 1 round. Seedpods do not add critical specialization effects.</p>"
        },
        "featType": {
            "value": "ancestry"
        },
        "level": {
            "value": 1
        },
        "location": "",
        "prerequisites": {
            "value": []
        },
        "rules": [
            {
                "category": "unarmed",
                "damage": {
                    "base": {
                        "damageType": "bludgeoning ",
                        "dice": 1,
                        "die": "d4"
                    }
                },
                "key": "Strike",
                "label": "Seedpod",
                "range": 10,
                "traits": [
                    "manipulate",
                    "unarmed"
                ]
            },
            {
                "key": "Note",
                "outcome": [
                    "criticalSuccess"
                ],
                "selector": "{item|_id}-damage",
                "text": "<p class='compact-text'>A seedpod bursts, issuing forth a tangle of vegetation that imposes a -10-foot circumstance penalty on the target's Speed for 1 round.</p>"
            }
        ],
        "source": {
            "value": "Pathfinder Lost Omens: Character Guide"
        },
        "traits": {
            "custom": "",
            "rarity": {
                "value": "common"
            },
            "value": [
                "leshy"
            ]
        }
    },
    "effects": [],
    "flags": {},
    "img": "systems/pf2e/icons/features/feats/feats.webp",
    "name": "Seedpod",
    "type": "feat"
}
