{
    "_id": "62glnJI2o0KnHULB",
    "data": {
        "actionCategory": {
            "value": ""
        },
        "actionType": {
            "value": "action"
        },
        "actions": {
            "value": 2
        },
        "description": {
            "value": "<p><strong>Requirements</strong> You are in @Compendium[pf2e.feats-srd.Monastic Archer Stance]{Monastic Archer Stance} and wielding a bow usable with that stance.</p>\n<hr />\n<p>You string three arrows to your bow and fire them all at once. Make three ranged Strikes against a single target with the required weapon, each using your current multiple attack penalty, and you take an additional -2 penalty. This counts as two attacks when calculating your multiple attack penalty, and you combine the attacks' damage for the purpose of resistances and weaknesses.</p>\n<p>Your @Compendium[pf2e.feats-srd.Stunning Fist]{Stunning Fist} benefit applies to Triangle Shot, even though it isn't a @Compendium[pf2e.actionspf2e.Flurry of Blows]{Flurry of Blows}. If all three Strikes hit, the target takes [[/r {3d6}[persistent,bleed]]] @Compendium[pf2e.conditionitems.Persistent Damage]{Persistent Bleed Damage}.</p>"
        },
        "featType": {
            "value": "class"
        },
        "level": {
            "value": 18
        },
        "location": "",
        "prerequisites": {
            "value": [
                {
                    "value": "Monastic Archer Stance"
                },
                {
                    "value": "Stunning Fist"
                }
            ]
        },
        "rules": [
            {
                "key": "ToggleProperty",
                "label": "Triangle Shot (-2 penalty to attack)",
                "property": "flags.pf2e.rollOptions.attack-roll.triangle-shot"
            },
            {
                "key": "FlatModifier",
                "predicate": {
                    "all": [
                        "triangle-shot",
                        "ranged"
                    ]
                },
                "selector": "attack",
                "value": -2
            }
        ],
        "source": {
            "value": "Pathfinder Advanced Player's Guide"
        },
        "traits": {
            "custom": "",
            "rarity": {
                "value": "common"
            },
            "value": [
                "concentrate",
                "flourish",
                "monk"
            ]
        }
    },
    "effects": [],
    "flags": {},
    "img": "systems/pf2e/icons/features/feats/feats.webp",
    "name": "Triangle Shot",
    "type": "feat"
}
