{
    "_id": "0icxuITlxUBfeomX",
    "data": {
        "actionCategory": {
            "value": ""
        },
        "actionType": {
            "value": "passive"
        },
        "actions": {
            "value": null
        },
        "description": {
            "value": "<p><strong>Archetype</strong> @Compendium[pf2e.archetypes.Turpin Rowe Lumberjack]{Turpin Rowe Lumberjack}</p>\n<p><strong>Access</strong> You must befriend at least one Turpin Rowe logger.</p>\n<hr />\n<p>Your logging training has made you intimately familiar with all aspects of forestry, and you have trained extensively to reach around trees and utilize their bulk to your advantage. You become trained in Milling Lore and Forest Lore, or an expert if you were already trained. You can always @Compendium[pf2e.actionspf2e.Take Cover]{Take Cover} when you are within forest terrain to gain cover, even if you're not next to an obstacle you can Take Cover behind. In addition, any enemy who gains standard cover from a tree gains only lesser cover against your attacks (or only standard cover, if the enemy otherwise gains greater cover).</p>\n<p><strong>Special</strong> You cannot select another dedication feat until you have gained two other feats from the Turpin Rowe lumberjack archetype.</p>"
        },
        "featType": {
            "value": "archetype"
        },
        "level": {
            "value": 2
        },
        "prerequisites": {
            "value": [
                {
                    "value": "trained in Survival"
                }
            ]
        },
        "rules": [],
        "source": {
            "value": "Pathfinder #153: Life's Long Shadow"
        },
        "traits": {
            "custom": "",
            "rarity": {
                "value": "uncommon"
            },
            "value": [
                "archetype",
                "dedication"
            ]
        }
    },
    "effects": [],
    "flags": {},
    "img": "systems/pf2e/icons/features/feats/feats.webp",
    "name": "Turpin Rowe Lumberjack Dedication",
    "type": "feat"
}
