{
    "_id": "nIryhRgeiacQw1Em",
    "data": {
        "description": {
            "value": "<p>When any creature in the area rolls a successful save against a poison or disease effect, it gets a critical success instead. The blossoms grant assisted recovery to everyone in the area to end their persistent damage, both when the spell is cast and at the start of each of your turns. This spell doesn't give a benefit on a save against an affliction unless the stage lasts 10 minutes or less.</p>"
        },
        "duration": {
            "expiry": "turn-start",
            "sustained": false,
            "unit": "minutes",
            "value": 10
        },
        "level": {
            "value": 1
        },
        "rules": [
            {
                "adjustment": {
                    "success": "one-degree-better"
                },
                "key": "AdjustDegreeOfSuccess",
                "predicate": {
                    "any": [
                        "poison",
                        "disease"
                    ]
                },
                "selector": "saving-throw",
                "type": "save"
            }
        ],
        "source": {
            "value": ""
        },
        "start": {
            "initiative": null,
            "value": 0
        },
        "target": null,
        "tokenIcon": {
            "show": true
        },
        "traits": {
            "custom": "",
            "rarity": {
                "value": "common"
            },
            "value": []
        }
    },
    "effects": [],
    "flags": {},
    "img": "systems/pf2e/icons/spells/soothing-blossom.webp",
    "name": "Spell Effect: Soothing Blossoms",
    "type": "effect"
}
