{
    "_id": "fKTewWlYgFuhl4KA",
    "data": {
        "actionCategory": {
            "value": ""
        },
        "actionType": {
            "value": "passive"
        },
        "actions": {
            "value": null
        },
        "description": {
            "value": "<p>You're as enduring as stone, and you take comfort in its steadfast presence, both natural and worked. You're trained in Crafting. You also gain the @Compendium[pf2e.feats-srd.Steadying Stone]{Steadying Stone} druid feat. You gain the <em>@Compendium[pf2e.spells-srd.Crushing Ground]{Crushing Ground}</em> order spell. Poisoning or polluting the land and heedlessly carving the earth to plunder its natural resources are anathema to your order (this doesn't prevent you from responsibly digging or mining).</p>"
        },
        "featType": {
            "value": "classfeature"
        },
        "level": {
            "value": 1
        },
        "location": "",
        "prerequisites": {
            "value": []
        },
        "rules": [
            {
                "key": "ActiveEffectLike",
                "mode": "upgrade",
                "path": "data.skills.cra.rank",
                "value": 1
            },
            {
                "key": "GrantItem",
                "predicate": {
                    "all": [
                        "self:class:druid"
                    ]
                },
                "uuid": "Compendium.pf2e.feats-srd.QEOe9AhQzdqIx1ei"
            }
        ],
        "source": {
            "value": "Pathfinder Core Rulebook"
        },
        "traits": {
            "custom": "",
            "rarity": {
                "value": "common"
            },
            "value": [
                "druid"
            ]
        }
    },
    "effects": [],
    "flags": {},
    "img": "systems/pf2e/icons/features/classes/stone-order.webp",
    "name": "Stone Order",
    "type": "feat"
}
