{
    "_id": "OmgtSDV1FubDUqWR",
    "data": {
        "actionCategory": {
            "value": ""
        },
        "actionType": {
            "value": "passive"
        },
        "actions": {
            "value": null
        },
        "description": {
            "value": "<p>You've learned the intricacies of magic and technology, blending the two together with deadly results. You combine a knowledge of arcane theories with a strong connection to your chosen weapon that allows you to manifest unique effects, though your knowledge doesn't extend as far as actual spellcasting. You can imbue energy into your weapon and conjure bullets from thin air. As you progress, you eventually learn to phase bullets through walls or even to teleport yourself along the path of your bullets. You must select Spellshot Dedication as your 2nd-level class feat.</p>\n<p><strong>Prerequisites</strong> You must be a gunslinger.</p>\n<p><strong>Spellshot Adjustments</strong> Instead of choosing a way from the options listed in the gunslinger class, you have the way of the spellshot. It has the following way skill, slinger's reload, and deeds. You gain these abilities at the same levels as normal for the class. You use Intelligence for your class DC.</p>\n<p><strong>Way Skill</strong> Arcana</p>\n<p><strong>Slinger's Reload</strong> Thoughtful Reload</p>\n<p><strong>Deeds</strong> <em>Initial</em> Energy Shot; <em>Advanced</em> Recall Ammunition; <em>Greater</em> Dispelling Bullet</p>"
        },
        "featType": {
            "value": "classfeature"
        },
        "level": {
            "value": 1
        },
        "location": "",
        "prerequisites": {
            "value": [
                {
                    "value": "You must be a gunslinger."
                }
            ]
        },
        "rules": [
            {
                "key": "FlatModifier",
                "selector": "class",
                "value": "(@actor.abilities.int.mod)-(@actor.abilities.dex.mod)"
            }
        ],
        "source": {
            "value": ""
        },
        "traits": {
            "custom": "",
            "rarity": {
                "value": "uncommon"
            },
            "value": [
                "gunslinger"
            ]
        }
    },
    "effects": [],
    "flags": {},
    "img": "systems/pf2e/icons/features/classes/way-of-the-spellshot.webp",
    "name": "Way of the Spellshot",
    "type": "feat"
}
