{
    "_id": "j2kfNBFpLa0JjVr8",
    "data": {
        "ability": {
            "value": ""
        },
        "area": {
            "areaType": "",
            "value": ""
        },
        "autoHeightenLevel": {
            "value": null
        },
        "category": {
            "value": "spell"
        },
        "components": {
            "focus": false,
            "material": false,
            "somatic": true,
            "verbal": true
        },
        "cost": {
            "value": ""
        },
        "damage": {
            "value": {}
        },
        "description": {
            "value": "<p>You surround yourself in a mantle of blazing fire magic, and your skin and anything you're wearing morphs into burning hot lava. The air around you swelters with heat, and tiny sparks of flame dance behind you as you pass. Upon casting this spell, pick two of the options below. As a single action, which has the concentrate trait, you can change one of your chosen abilities to a different option from the list.</p>\n<ul>\n<li><strong>Enlarging Eruption</strong> You erupt in lava, which clings to you and hardens, causing your body to swell and burst until you grow to size Large. You're clumsy 1. Your reach increases by 5 feet (or by 10 feet if you started out Tiny), and you gain a +2 status bonus to melee damage. You can't choose this option if you're already Large or larger. @Compendium[pf2e.spell-effects.Spell Effect: Mantle of the Magma Heart (Enlarging Eruption)]{Spell Effect: Mantle of the Magma Heart (Enlarging Eruption)}</li>\n<li><strong>Fiery Grasp</strong> Your hands swell and grow with lava. You gain a lava fist unarmed attack in the brawling weapon group. Your lava fists deal 1d8 bludgeoning damage as their base damage, plus an additional 2d6 fire damage and 1d6 persistent fire damage. @Compendium[pf2e.spell-effects.Spell Effect: Mantle of the Magma Heart (Fiery Grasp)]{Spell Effect: Mantle of the Magma Heart (Fiery Grasp)}</li>\n<li><strong>Heart of Fire</strong> Your body's temperature becomes so hot that any creature that touches you, or that hits you with a melee unarmed attack or non-reach melee weapon attack, takes [[/r {2d6}[fire]]]{2d6 fire damage}.</li>\n<li><strong>Warming Flames</strong> Flames flicker around you, warming away the cold while protecting you from the heat. You gain resistance 5 to cold and fire.</li>\n</ul>"
        },
        "duration": {
            "value": "1 minute"
        },
        "hasCounteractCheck": {
            "value": false
        },
        "level": {
            "value": 5
        },
        "location": {
            "value": ""
        },
        "materials": {
            "value": ""
        },
        "range": {
            "value": ""
        },
        "rules": [],
        "save": {
            "basic": "",
            "value": ""
        },
        "school": {
            "value": "transmutation"
        },
        "source": {
            "value": "Pathfinder Secrets of Magic"
        },
        "spellType": {
            "value": "utility"
        },
        "sustained": {
            "value": false
        },
        "target": {
            "value": ""
        },
        "time": {
            "value": "2"
        },
        "traditions": {
            "custom": "",
            "value": [
                "arcane",
                "primal"
            ]
        },
        "traits": {
            "custom": "",
            "rarity": {
                "value": "common"
            },
            "value": [
                "fire",
                "morph"
            ]
        }
    },
    "effects": [],
    "flags": {},
    "img": "systems/pf2e/icons/spells/mantle-of-the-magma-heart.webp",
    "name": "Mantle of the Magma Heart",
    "type": "spell"
}
