{
    "_id": "3DB3F2hIx2dMbX8n",
    "data": {
        "ability": {
            "value": ""
        },
        "area": {
            "areaType": "",
            "value": ""
        },
        "autoHeightenLevel": {
            "value": null
        },
        "category": {
            "value": "ritual"
        },
        "components": {
            "focus": false,
            "material": false,
            "somatic": false,
            "verbal": false
        },
        "cost": {
            "value": "costumes and a stage large enough to fit all casters;"
        },
        "damage": {
            "value": {}
        },
        "description": {
            "value": "<p>This famous ritual is a sophisticated example of symbolic magic, binding fate and fortune to follow a prepared script. To conduct the ritual, you and the secondary casters must put on a long-form, multi-person, plot-based performance that's usually a play or opera, though more unusual performances have been known. You take the role of the director, while the secondary casters are either actors (Performance) or significant backstage figures, such as set or costume designers (Crafting). The casting time of the ritual includes both preparations and rehearsals of various sorts and the actual performance, which must be at least an hour long.</p>\n<p>The performance presents current events and offers a particular vision on how they resolve, often in metaphorical or allegorical format (proposing the overthrow of a tyrant by referring to a different, legendary tyrant who was overthrown, or suggesting that a murderous secret might be uncovered by presenting an allegory of truth defeating murder). This performance must be presented to an audience of at least a hundred people, a majority of whom must both be connected, at least peripherally, to the events in question (the people of the tyrant's city, or the residents of the village where the murder occurred) and who must understand what the metaphor or allegory actually refers to. For the magic to spark, the performance must declare its purpose loudly and clearly to the parties most concerned. If a major antagonist featured in the performance is in the audience and the ritual is a success, you get a critical success instead.</p>\n<hr />\n<p><strong>Critical Success</strong> Something sublime sparks between performance and audience, and destiny conspires to push events in the right direction. You and each secondary caster can reroll up to three skill checks at any point during the duration of the ritual after determining the results, as long as the skill check is connected to ensuring the topic of the performance comes true (to sneak past the tyrant's guards or find the murder weapon, for instance).</p>\n<p><strong>Success</strong> As critical success except the sparks of destiny are weaker, so each caster can reroll only a single skill check.</p>\n<p><strong>Failure</strong> The ritual has no effect.</p>\n<p><strong>Critical Failure</strong> The performance is a dramatic and horrendous botch, and fate strikes out at the casters. You and each secondary caster are @Compendium[pf2e.conditionitems.Doomed]{Doomed 1} for the next month, and this condition can't be removed by anything less than a wish or similarly powerful magic.</p>"
        },
        "duration": {
            "value": "1 month"
        },
        "hasCounteractCheck": {
            "value": false
        },
        "level": {
            "value": 5
        },
        "location": {
            "value": ""
        },
        "materials": {
            "value": ""
        },
        "primarycheck": {
            "value": "Occultism (expert)"
        },
        "range": {
            "value": ""
        },
        "rules": [],
        "save": {
            "basic": "",
            "value": ""
        },
        "school": {
            "value": "divination"
        },
        "secondarycasters": {
            "value": "2 to 12"
        },
        "secondarycheck": {
            "value": "Crafting, Performance"
        },
        "source": {
            "value": "Pathfinder Secrets of Magic"
        },
        "spellType": {
            "value": "utility"
        },
        "sustained": {
            "value": false
        },
        "target": {
            "value": ""
        },
        "time": {
            "value": "1 day"
        },
        "traditions": {
            "value": []
        },
        "traits": {
            "custom": "",
            "rarity": {
                "value": "uncommon"
            },
            "value": [
                "fortune"
            ]
        }
    },
    "effects": [],
    "flags": {},
    "img": "systems/pf2e/icons/default-icons/spell.svg",
    "name": "The World's a Stage",
    "type": "spell"
}
