{
    "_id": "NfIAGatB1KIzt8G7",
    "data": {
        "actionCategory": {
            "value": ""
        },
        "actionType": {
            "value": "passive"
        },
        "actions": {
            "value": null
        },
        "description": {
            "value": "<p>You were born or spent many years in underground tunnels or caverns where light is scarce. You gain @Compendium[pf2e.ancestryfeatures.Darkvision]{Darkvision}.</p>"
        },
        "featType": {
            "value": "heritage"
        },
        "level": {
            "value": 0
        },
        "location": "",
        "prerequisites": {
            "value": []
        },
        "rules": [],
        "source": {
            "value": ""
        },
        "traits": {
            "custom": "",
            "rarity": {
                "value": "common"
            },
            "value": [
                "elf"
            ]
        }
    },
    "effects": [],
    "flags": {},
    "img": "systems/pf2e/icons/features/ancestry/caveren-elf.webp",
    "name": "Cavern Elf",
    "type": "feat"
}
