{
    "_id": "NWsZ0cIeghyzk9bU",
    "data": {
        "actionCategory": {
            "value": ""
        },
        "actionType": {
            "value": "passive"
        },
        "actions": {
            "value": null
        },
        "description": {
            "value": "<p>You were born with big, expressive ears that move with your moods and perk up at any unexpected sound. You gain a +2 circumstance bonus to locate undetected creatures that you could hear within 30 feet with a Seek action.</p>\n<p>As long as you're aware of a creature via sound, once per round, your ears can help you @Compendium[pf2e.actionspf2e.Point Out]{Point Out} the creature to all allies as a free action.</p>"
        },
        "featType": {
            "value": "heritage"
        },
        "level": {
            "value": 0
        },
        "location": "",
        "prerequisites": {
            "value": []
        },
        "rules": [
            {
                "key": "FlatModifier",
                "label": "To Seek undetected within 30 feet via hearing (Sharp-Eared Catfolk)",
                "predicate": {
                    "all": [
                        "action:seek",
                        "sense:hearing",
                        "target:within-30"
                    ]
                },
                "selector": "perception",
                "type": "circumstance",
                "value": 2
            }
        ],
        "source": {
            "value": ""
        },
        "traits": {
            "custom": "",
            "rarity": {
                "value": "common"
            },
            "value": [
                "catfolk"
            ]
        }
    },
    "effects": [],
    "flags": {},
    "img": "systems/pf2e/icons/default-icons/feat.svg",
    "name": "Sharp-Eared Catfolk",
    "type": "feat"
}
