{
    "_id": "jzJ575vAsw2MaRgo",
    "data": {
        "actionCategory": {
            "value": ""
        },
        "actionType": {
            "value": "passive"
        },
        "actions": {
            "value": null
        },
        "description": {
            "value": "<p><strong>[Faction]</strong></p>\n<p><strong>Prerequisites</strong> Tier 0 with the Envoy's Alliance</p>\n<p><strong>Cost</strong> 4 Fame (0 Fame if first faction for this PC)</p>\n<p><strong>Effect</strong> This faction boon represents your developing initial contacts with the Envoys' Alliance faction, allowing you to gain Reputation with the faction.</p>\n<p><strong>Normal</strong> A character gains no Reputation uinless they have a faction boon slotted.</p>"
        },
        "featType": {
            "value": "pfsboon"
        },
        "level": {
            "value": 0
        },
        "prerequisites": {
            "value": []
        },
        "rules": [],
        "source": {
            "value": ""
        },
        "traits": {
            "custom": "",
            "rarity": {
                "value": "common"
            },
            "value": []
        }
    },
    "effects": [],
    "flags": {},
    "img": "systems/pf2e/icons/default-icons/mystery-man.webp",
    "name": "Envoy's Alliance Champion",
    "type": "feat"
}
