{
    "_id": "1welewgoB0z86Nms",
    "data": {
        "actionCategory": {
            "value": ""
        },
        "actionType": {
            "value": "reaction"
        },
        "actions": {
            "value": null
        },
        "description": {
            "value": "<p><strong>[Generic][Limited Use]</strong> □□□</p>\n<p>Your time in the Gravelands included many harrowing trials that required you to learn how to work especially well with your companions.</p>\n<p><strong>Action</strong> Reaction</p>\n<p data-visibility=\"gm\"><strong>Trigger</strong> (Fortune) An ally fails a check on which you Aided.</p>\n<p><strong>Effect</strong> The ally can reroll the check and use the better result.</p>"
        },
        "featType": {
            "value": "pfsboon"
        },
        "level": {
            "value": 0
        },
        "prerequisites": {
            "value": []
        },
        "rules": [],
        "source": {
            "value": ""
        },
        "traits": {
            "custom": "",
            "rarity": {
                "value": "common"
            },
            "value": []
        }
    },
    "effects": [],
    "flags": {},
    "img": "systems/pf2e/icons/default-icons/mystery-man.webp",
    "name": "S1-03 - Team Player",
    "type": "feat"
}
