{
    "_id": "XOVDOCsvNBX5LS8j",
    "data": {
        "actionCategory": {
            "value": ""
        },
        "actionType": {
            "value": "passive"
        },
        "actions": {
            "value": null
        },
        "description": {
            "value": "<p><strong>[Generic]</strong><strong>][Limited Use]</strong> □□</p>\n<p><strong>Effect</strong> Valais Durant is the leader of the Radiant Oath, in no small part because of her kindness and willingness to share her power with those in need. You may check a box next to this boon and spend an action to use the champion focus spell <em>@Compendium[pf2e.spells-srd.Lay on Hands]{Lay on Hands}</em>, heightened appropriately for your level. This does not cost a focus point.</p>"
        },
        "featType": {
            "value": "pfsboon"
        },
        "level": {
            "value": 0
        },
        "prerequisites": {
            "value": []
        },
        "rules": [],
        "source": {
            "value": ""
        },
        "traits": {
            "custom": "",
            "rarity": {
                "value": "common"
            },
            "value": []
        }
    },
    "effects": [],
    "flags": {},
    "img": "systems/pf2e/icons/default-icons/mystery-man.webp",
    "name": "S1-12 - Valais's Assurance",
    "type": "feat"
}
