{
    "_id": "MZDh3170EFIfOwTO",
    "data": {
        "description": {
            "value": "<p>Your gizmos go into overdrive, adding power to your attacks. Your Strikes deal additional damage equal to half your Intelligence modifier for 1 minute. After the Overdrive ends, your gizmos become unusable as they cool down or reset, and you can't use Overdrive for 1 minute.</p>"
        },
        "duration": {
            "expiry": "turn-start",
            "sustained": false,
            "unit": "minutes",
            "value": 1
        },
        "level": {
            "value": 1
        },
        "rules": [
            {
                "key": "FlatModifier",
                "selector": "damage",
                "value": {
                    "brackets": [
                        {
                            "end": 2,
                            "value": "floor(@actor.abilities.int.mod/2)"
                        },
                        {
                            "end": 6,
                            "start": 3,
                            "value": "floor(@actor.abilities.int.mod/2)+1"
                        },
                        {
                            "end": 14,
                            "start": 7,
                            "value": "floor(@actor.abilities.int.mod/2)+2"
                        },
                        {
                            "start": 15,
                            "value": "floor(@actor.abilities.int.mod/2)+3"
                        }
                    ]
                }
            }
        ],
        "source": {
            "value": ""
        },
        "start": {
            "initiative": null,
            "value": 0
        },
        "target": null,
        "tokenIcon": {
            "show": true
        },
        "traits": {
            "custom": "",
            "rarity": {
                "value": "common"
            },
            "value": []
        }
    },
    "effects": [],
    "flags": {},
    "img": "systems/pf2e/icons/default-icons/effect.svg",
    "name": "Effect: Overdrive (Success)",
    "type": "effect"
}
