{
    "_id": "RozqjLocahvQWERr",
    "data": {
        "description": {
            "value": "<p>Granted by @Compendium[pf2e.feats-srd.Gorilla Stance]{Gorilla Stance}</p>\n<p>You lower yourself to the ground and take an imposing, knuckle-walking stance. While in this stance, the only Strikes you can make are gorilla slam unarmed attacks. These deal 1d8 bludgeoning damage; are in the brawling group; and have the backswing, forceful, grapple, nonlethal, and unarmed traits.</p>\n<p>While you are in Gorilla Stance, you gain a +2 circumstance bonus to Athletics checks to @Compendium[pf2e.actionspf2e.Climb]{Climb}, and if you roll a success on an Athletics check to Climb, you get a critical success instead.</p>"
        },
        "duration": {
            "expiry": "turn-start",
            "sustained": false,
            "unit": "encounter",
            "value": -1
        },
        "level": {
            "value": 0
        },
        "rules": [
            {
                "category": "unarmed",
                "damage": {
                    "base": {
                        "damageType": "bludgeoning",
                        "dice": 1,
                        "die": "d8"
                    }
                },
                "group": "brawling",
                "key": "Strike",
                "label": "Gorilla Slam",
                "range": null,
                "replaceAll": true,
                "traits": [
                    "backswing",
                    "forceful",
                    "grapple",
                    "unarmed",
                    "nonlethal"
                ]
            },
            {
                "key": "FlatModifier",
                "predicate": {
                    "all": [
                        "action:climb"
                    ]
                },
                "selector": "athletics",
                "type": "circumstance",
                "value": 2
            },
            {
                "key": "Note",
                "predicate": {
                    "all": [
                        "action:climb"
                    ]
                },
                "selector": "athletics",
                "text": "<p class='compact-text'><strong>Gorilla Stance</strong> If you roll a success on an Athletics check to Climb, you get a critical success instead.</p>"
            }
        ],
        "source": {
            "value": ""
        },
        "start": {
            "initiative": null,
            "value": 0
        },
        "target": null,
        "tokenIcon": {
            "show": true
        },
        "traits": {
            "custom": "",
            "rarity": {
                "value": "common"
            },
            "value": []
        }
    },
    "effects": [],
    "flags": {},
    "img": "systems/pf2e/icons/features/feats/gorilla-stance.webp",
    "name": "Stance: Gorilla Stance",
    "type": "effect"
}
