{
    "_id": "g5Yen1FhEMCzCJkv",
    "data": {
        "description": {
            "value": ""
        },
        "duration": {
            "expiry": "turn-start",
            "sustained": false,
            "unit": "unlimited",
            "value": -1
        },
        "level": {
            "value": 1
        },
        "rules": [
            {
                "key": "FlatModifier",
                "label": "Profane Gift",
                "selector": "attack",
                "type": "status",
                "value": 1
            },
            {
                "key": "FlatModifier",
                "label": "Profane Gift",
                "selector": "saving-throw",
                "type": "status",
                "value": 1
            },
            {
                "key": "FlatModifier",
                "label": "Profane Gift",
                "selector": "skill-check",
                "type": "status",
                "value": 1
            }
        ],
        "source": {
            "value": ""
        },
        "start": {
            "initiative": null,
            "value": 0
        },
        "target": null,
        "tokenIcon": {
            "show": true
        },
        "traits": {
            "custom": "",
            "rarity": {
                "value": "common"
            },
            "value": []
        }
    },
    "effects": [],
    "flags": {},
    "img": "systems/pf2e/icons/default-icons/effect.svg",
    "name": "Effect: Profane Gift",
    "type": "effect"
}
