{
    "_id": "gxBjyPaYDdhjAImf",
    "data": {
        "description": {
            "value": "<p>The creature gains a +2 circumstance bonus on saving throws.</p>"
        },
        "duration": {
            "expiry": "turn-start",
            "sustained": false,
            "unit": "minutes",
            "value": 1
        },
        "level": {
            "value": 14
        },
        "rules": [
            {
                "key": "FlatModifier",
                "selector": "saving-throw",
                "type": "circumstance",
                "value": 2
            }
        ],
        "source": {
            "value": "Pathfinder Lost Omens: The Mwangi Expanse"
        },
        "start": {
            "initiative": null,
            "value": 0
        },
        "target": null,
        "tokenIcon": {
            "show": true
        },
        "traits": {
            "custom": "",
            "rarity": {
                "value": "common"
            },
            "value": []
        }
    },
    "effects": [],
    "flags": {},
    "img": "systems/pf2e/icons/spells/guidance.webp",
    "name": "Effect: Ancestral Response",
    "type": "effect"
}
