{
    "_id": "EM0VP31B8CyjFD15",
    "data": {
        "description": {
            "value": "<p>The creature gains a +1 status bonus to attack rolls and a +2 status bonus to damage rolls.</p>"
        },
        "duration": {
            "expiry": "turn-start",
            "sustained": false,
            "unit": "hours",
            "value": 1
        },
        "level": {
            "value": 1
        },
        "rules": [
            {
                "key": "FlatModifier",
                "selector": "attack",
                "type": "status",
                "value": 1
            },
            {
                "key": "FlatModifier",
                "selector": "damage",
                "type": "status",
                "value": 2
            }
        ],
        "source": {
            "value": "Pathfinder Lost Omens: The Mwangi Expanse"
        },
        "start": {
            "initiative": null,
            "value": 0
        },
        "target": null,
        "tokenIcon": {
            "show": true
        },
        "traits": {
            "custom": "",
            "rarity": {
                "value": "common"
            },
            "value": []
        }
    },
    "effects": [],
    "flags": {},
    "img": "systems/pf2e/icons/spells/heroes-feast.webp",
    "name": "Effect: Inspired Feast",
    "type": "effect"
}
