{
    "_id": "vWyxxVDHSBWMtsJN",
    "content": "<p>Play this after Casting a Spell from your spell slots.</p>\n<hr />\n<p>You surround yourself with an aura of residual magic power. Until the start of your next turn, you gain resistance to all damage equal to the level of the spell that you just cast.</p>",
    "flags": {},
    "name": "Aura of Protection",
    "permission": {
        "default": 0
    }
}
