{
    "_id": "VRhdfL78HS5sT4gF",
    "data": {
        "attributes": {
            "ac": {
                "check": 0,
                "details": "",
                "value": 21
            },
            "collisionDC": {
                "value": 21
            },
            "collisionDamage": {
                "value": "7d6"
            },
            "hardness": 10,
            "hp": {
                "brokenThreshold": 5,
                "details": "",
                "max": 100,
                "temp": 0,
                "value": 100
            }
        },
        "details": {
            "AC": 0,
            "crew": "1 pilot",
            "description": "<p>Shaped like its animal namesake, a snail coach is a trolley powered by a combination of magic and alchemical adhesives, with a hard outer shell to protect itself from attacks. The adhesive trail both allows it to climb and leaves a hindrance for pursuing foes.</p>",
            "level": {
                "value": 7
            },
            "passengers": "6",
            "pilotingCheck": "Driving Lore (DC 23) or Crafting (DC 25)",
            "price": 1000,
            "space": {
                "high": 15,
                "long": 30,
                "wide": 10
            },
            "speed": "15 feet, climb 15 feet (alchemical, magical)"
        },
        "saves": {
            "fortitude": {
                "item": 0,
                "rank": 0,
                "saveDetail": "",
                "value": 15
            }
        },
        "source": {
            "value": "Pathfinder Guns & Gears"
        },
        "traits": {
            "ci": [],
            "di": {
                "custom": "",
                "value": [
                    "critical-hits",
                    "object-immunities",
                    "precision"
                ]
            },
            "dr": [],
            "dv": [],
            "rarity": {
                "value": "uncommon"
            },
            "size": {
                "value": "huge"
            },
            "traits": {
                "custom": "",
                "value": []
            }
        }
    },
    "effects": [],
    "flags": {},
    "img": "systems/pf2e/icons/default-icons/vehicle.svg",
    "items": [
        {
            "_id": "cFwKXyV5W3o1v3KK",
            "data": {
                "actionCategory": {
                    "value": ""
                },
                "actionType": {
                    "value": "passive"
                },
                "actions": {
                    "value": null
                },
                "description": {
                    "value": "<p>This vehicle secretes an alchemical adhesive that allows it to stick to and climb up solid surfaces. Spaces the snail coach moves through become difficult terrain for 1 round. Any creature that ends their turn on the adhesive must succeed at a <span data-pf2-check=\"reflex\" data-pf2-traits=\"\" data-pf2-label=\"Avoid adhesive DC\" data-pf2-dc=\"23\" data-pf2-show-dc=\"gm\">Reflex</span> or take a –10-foot status penalty to its Speeds for 1 round. On a critical failure, the creature is also @Compendium[pf2e.conditionitems.Immobilized]{Immobilized} for 1 round (@Compendium[pf2e.actionspf2e.Escape]{Escape} DC 23).</p>"
                },
                "requirements": {
                    "value": ""
                },
                "rules": [],
                "slug": null,
                "source": {
                    "value": ""
                },
                "traits": {
                    "custom": "",
                    "rarity": {
                        "value": "common"
                    },
                    "value": []
                },
                "trigger": {
                    "value": ""
                }
            },
            "effects": [],
            "flags": {},
            "img": "systems/pf2e/icons/actions/Passive.webp",
            "name": "Adhesive Secretions",
            "sort": 0,
            "type": "action"
        }
    ],
    "name": "Snail Coach",
    "token": {
        "disposition": 0,
        "height": 6,
        "img": "systems/pf2e/icons/default-icons/vehicle.svg",
        "name": "Snail Coach",
        "width": 2
    },
    "type": "vehicle"
}
