{
    "_id": "2cIhbpiQcXGnWdCP",
    "data": {
        "attributes": {
            "ac": {
                "value": 16
            },
            "hardness": 10,
            "hasHealth": true,
            "hp": {
                "details": "",
                "max": 43,
                "temp": 0,
                "value": 43
            },
            "stealth": {
                "details": "<p>or <em>Detect Magic</em></p>",
                "value": 0
            }
        },
        "creatureType": "",
        "details": {
            "description": "<p>A magnetically charged platform draws in armored creatures, then flings them up into the sky, where they are struck by lightning.</p>",
            "disable": "<p><span data-pf2-check=\"thievery\" data-pf2-traits=\"electricity,magical,trap\" data-pf2-label=\"Ground the Electricity DC\" data-pf2-dc=\"20\" data-pf2-show-dc=\"gm\">Thievery</span> (trained) to ground out the energy or <span data-pf2-check=\"arcana\" data-pf2-traits=\"electricity,magical,trap\" data-pf2-label=\"Neutralize the Magical Charge DC\" data-pf2-dc=\"23\" data-pf2-show-dc=\"gm\">Arcana</span> (trained) to neutralize the magical charge</p>",
            "isComplex": false,
            "level": {
                "value": 3
            },
            "reset": "",
            "routine": ""
        },
        "saves": {
            "fortitude": {
                "saveDetail": "",
                "value": 14
            },
            "reflex": {
                "saveDetail": "",
                "value": 12
            },
            "will": {
                "saveDetail": "",
                "value": 0
            }
        },
        "source": {
            "value": "Pathfinder Society Scenario 1-25: Grim Symphony"
        },
        "statusEffects": [],
        "traits": {
            "ci": [],
            "di": {
                "custom": "",
                "selected": {},
                "value": [
                    "critical-hits",
                    "electricity",
                    "object-immunities",
                    "precision"
                ]
            },
            "dr": [],
            "dv": [],
            "rarity": {
                "value": "uncommon"
            },
            "size": {
                "value": "med"
            },
            "traits": {
                "custom": "",
                "value": [
                    "electricity",
                    "magical",
                    "trap"
                ]
            }
        }
    },
    "effects": [],
    "flags": {},
    "img": "systems/pf2e/icons/default-icons/hazard.svg",
    "items": [
        {
            "_id": "lYidBvsejwCe09Tf",
            "data": {
                "actionCategory": {
                    "value": "offensive"
                },
                "actionType": {
                    "value": "reaction"
                },
                "actions": {
                    "value": null
                },
                "description": {
                    "value": "<p data-visibility=\"gm\"><strong>Trigger</strong> A creature moves within 10 feet of the platform</p>\n<p><strong>Effect</strong> All creatures within 10 feet of the platform must each attempt a <span data-pf2-check=\"fortitude\" data-pf2-traits=\"arcane,electricity,evocation,magical,trap\" data-pf2-label=\"Magnetic Drag DC\" data-pf2-dc=\"23\" data-pf2-show-dc=\"gm\">Fortitude</span> save. Creatures who are wearing metal armor or are made of metal suffer a -2 circumstance penalty to this save.</p>\n<div data-visibility=\"gm\"><hr />\n<p><strong>Critical Success</strong> The creature is unaffected.</p>\n<p><strong>Success</strong> The creature is dragged 5 feet toward the platform.</p>\n<p><strong>Failure</strong> The creature is dragged onto the platform, which is quickly raised on chains 20 feet into the air. The creature is then struck by lightning for [[/r {2d10+13}[electricity]]]{2d10+13 electricity damage}.</p>\n<p><strong>Critical Failure</strong> As failure, but the creature is also knocked @Compendium[pf2e.conditionitems.Prone]{Prone} and @Compendium[pf2e.conditionitems.Restrained]{Restrained} on the platform (Escape DC 20).</p>\n</div>"
                },
                "requirements": {
                    "value": ""
                },
                "rules": [],
                "slug": null,
                "source": {
                    "value": ""
                },
                "traits": {
                    "custom": "",
                    "rarity": {
                        "value": "common"
                    },
                    "value": [
                        "arcane",
                        "electricity",
                        "evocation"
                    ]
                },
                "trigger": {
                    "value": ""
                },
                "weapon": {
                    "value": ""
                }
            },
            "effects": [],
            "flags": {},
            "img": "systems/pf2e/icons/actions/Reaction.webp",
            "name": "Magnetic Drag",
            "sort": 0,
            "type": "action"
        }
    ],
    "name": "Lightning Platform (5-6)",
    "token": {
        "disposition": 0,
        "height": 1,
        "img": "systems/pf2e/icons/default-icons/hazard.svg",
        "name": "Lightning Platform",
        "width": 1
    },
    "type": "hazard"
}
