{
    "_id": "loJBcC34yhpVwfio",
    "data": {
        "attributes": {
            "ac": {
                "value": 0
            },
            "hardness": 0,
            "hasHealth": true,
            "hp": {
                "details": "",
                "max": 10,
                "temp": 0,
                "value": 10
            },
            "stealth": {
                "details": "<p>(trained) to hear the scratching beneath the floorboards</p>",
                "value": 13
            }
        },
        "creatureType": "",
        "details": {
            "description": "<p>Illusory hands tear from the floorboards, clawing at their victim's legs and leaving real wounds. </p>",
            "disable": "<p>Religion DC 20 (trained) to exorcize the spirits</p>",
            "isComplex": false,
            "level": {
                "value": 4
            },
            "reset": "<p>The underlying spirits remain, resetting the haunt every midnight, until the true story of what happened here becomes public.</p>",
            "routine": ""
        },
        "saves": {
            "fortitude": {
                "saveDetail": "",
                "value": 0
            },
            "reflex": {
                "saveDetail": "",
                "value": 0
            },
            "will": {
                "saveDetail": "",
                "value": 0
            }
        },
        "source": {
            "value": ""
        },
        "statusEffects": [],
        "traits": {
            "ci": [],
            "di": {
                "custom": "",
                "selected": {},
                "value": []
            },
            "dr": [],
            "dv": [],
            "rarity": {
                "value": "common"
            },
            "size": {
                "value": "med"
            },
            "traits": {
                "custom": "",
                "value": [
                    "haunt"
                ]
            }
        }
    },
    "effects": [],
    "flags": {},
    "img": "systems/pf2e/icons/default-icons/hazard.svg",
    "items": [
        {
            "_id": "vGwlY8H7EONqROr1",
            "data": {
                "actionCategory": {
                    "value": "offensive"
                },
                "actionType": {
                    "value": "reaction"
                },
                "actions": {
                    "value": null
                },
                "description": {
                    "value": "<p data-visibility=\"gm\"><strong>Trigger</strong> A creature passes through area <strong>C2</strong> for the second time in 24 hours.</p>\n<p><strong>Effect</strong> Phantasmal rotting hands burst out from the floor under the target, tearing into their legs. The hands' appearance varies based on the reason for the haunting (see the table below).</p>\n<p>The hands deal [[/r {4d6+10}[slashing]]]{4d6+10 slashing damage} and [[/r {4d6}[persistent,bleed]]] @Compendium[pf2e.conditionitems.Persistent Damage]{Persistent Bleed Damage} (<span data-pf2-check=\"will\" data-pf2-traits=\"divine,illusion,mental\" data-pf2-label=\"Rending Hands DC\" data-pf2-dc=\"21\" data-pf2-show-dc=\"gm\">basic Will</span> save). If a creature takes any damage from the haunt, the claws leave rending wounds on the target's legs, reducing their land Speed by 10 feet (minimum 5 feet) until the target is restored to its maximum HP.</p>\n<table class=\"pf2-table\">\n<thead>\n<tr>\n<th>Owners</th>\n<th>Haunt Manifestations</th>\n</tr>\n</thead>\n<tbody>\n<tr>\n<td>Archdevil Worshippers</td>\n<td>Scent of brimstone and sound of chanting in Infernal (a PC who understands Infernal or succeeds at a <span data-pf2-check=\"religion\" data-pf2-dc=\"10\" data-pf2-label=\"Recognize Chanting DC\" data-pf2-show-dc=\"gm\">Religion</span>, <span data-pf2-check=\"hell-lore\" data-pf2-dc=\"10\" data-pf2-label=\"Recognize Chanting DC\" data-pf2-show-dc=\"gm\">Hell Lore</span>, or <span data-pf2-check=\"mephistopheles-lore\" data-pf2-dc=\"10\" data-pf2-label=\"Recognize Chanting DC\" data-pf2-show-dc=\"gm\">Mephistopheles Lore</span> check recognizes the chanting as a prayer to Mephistopheles)</td>\n</tr>\n<tr>\n<td>Soulbound Dollmakers</td>\n<td>Flesh flaking off the rotting hands reveals smooth porcelain underneath (a PC who succeeds at a <span data-pf2-check=\"crafting\" data-pf2-dc=\"10\" data-pf2-label=\"Recognize Craftsmanship DC\" data-pf2-show-dc=\"gm\">Crafting</span> or <span data-pf2-check=\"occultism\" data-pf2-dc=\"10\" data-pf2-label=\"Recognize Craftsmanship DC\" data-pf2-show-dc=\"gm\">Occultism</span> check recognizes the craftsmanship as that of soulbound dolls)</td>\n</tr>\n<tr>\n<td>Alchemical Experimenters</td>\n<td>A chemical scent overpowers the rot, and precise surgical cuts can be seen on the arms (a PC who succeeds at a <span data-pf2-check=\"crafting\" data-pf2-dc=\"10\" data-pf2-label=\"Recognize Cuts DC\" data-pf2-show-dc=\"gm\">Crafting</span> or <span data-pf2-check=\"medicine\" data-pf2-dc=\"10\" data-pf2-label=\"Recognize Cuts DC\" data-pf2-show-dc=\"gm\">Medicine</span> check realizes both are medical but unnecessary)</td>\n</tr>\n<tr>\n<td>Slavers</td>\n<td>The hands still wear heavy manacles around the wrists</td>\n</tr>\n<tr>\n<td>Crime Lords</td>\n<td>The hands are tattooed and some are cleanly missing fingers (a PC who succeeds at a <span data-pf2-check=\"society\" data-pf2-dc=\"10\" data-pf2-label=\"Recognize Marks DC\" data-pf2-show-dc=\"gm\">Society</span> or <span data-pf2-check=\"underworld-lore\" data-pf2-dc=\"10\" data-pf2-label=\"Recognize Marks DC\" data-pf2-show-dc=\"gm\">Underworld Lore</span> check recognizes these as marks of gangs active before the earthquake)</td>\n</tr>\n<tr>\n<td>Misguided Pharasmins</td>\n<td>A scent of incense lingers as the haunt vanishes (a PC who succeeds at a <span data-pf2-check=\"religion\" data-pf2-dc=\"10\" data-pf2-label=\"Recognize Rites DC\" data-pf2-show-dc=\"gm\">Religion</span> or <span data-pf2-check=\"pharasma-lore\" data-pf2-dc=\"10\" data-pf2-label=\"Recognize Rites DC\" data-pf2-show-dc=\"gm\">Pharasma Lore</span> check recognizes the scent from Pharasmin funerals)</td>\n</tr>\n</tbody>\n</table>"
                },
                "requirements": {
                    "value": ""
                },
                "rules": [],
                "slug": null,
                "source": {
                    "value": ""
                },
                "traits": {
                    "custom": "",
                    "rarity": {
                        "value": "common"
                    },
                    "value": [
                        "mental",
                        "divine",
                        "illusion"
                    ]
                },
                "trigger": {
                    "value": ""
                },
                "weapon": {
                    "value": ""
                }
            },
            "effects": [],
            "flags": {},
            "img": "systems/pf2e/icons/actions/Reaction.webp",
            "name": "Rending Hands",
            "sort": 100000,
            "type": "action"
        }
    ],
    "name": "Rending Hands",
    "token": {
        "disposition": 0,
        "height": 1,
        "img": "systems/pf2e/icons/default-icons/hazard.svg",
        "name": "Rending Hands",
        "width": 1
    },
    "type": "hazard"
}
