{
    "_id": "hv50ovLKV6lu49dF",
    "data": {
        "attributes": {
            "ac": {
                "value": 0
            },
            "hardness": null,
            "hasHealth": true,
            "hp": {
                "details": "",
                "max": null,
                "temp": 0,
                "tempmax": 0,
                "value": 0
            },
            "stealth": {
                "details": "DC 22 Perception to detect the subtle magical aura of the land",
                "value": 12
            }
        },
        "creatureType": "",
        "customModifiers": {},
        "details": {
            "description": "What seems like an innocent stretch of land assaults trespassers with terrible illusions.",
            "disable": "Arcana, Nature, Occultism, or Religion DC 22 (by a hero with expert proficiency in that skill) three times to temporarily disrupt the magic, or dispel magic (3rd-level spell, DC 25)",
            "isComplex": true,
            "level": {
                "value": 6
            },
            "reset": "The terrible visions cease after all creatures have left the affected area, but the hazard is immediately ready to inflict its visions on the next creature to enter.",
            "routine": "(1 action) Terrible visions assail the minds of all creatures who can see within the affected area. Each creature must attempt a DC 24 Will saving throw.\nCritical Success The creature is unaffected.\nSuccess The creature is frightened 2.\nFailure The creature takes 2d8+9 mental damage and is frightened 3.\nCritical Failure The creature takes 4d8+18 mental damage and is frightened 4."
        },
        "saves": {
            "fortitude": {
                "saveDetail": "",
                "value": 0
            },
            "reflex": {
                "saveDetail": "",
                "value": 0
            },
            "will": {
                "saveDetail": "",
                "value": 0
            }
        },
        "source": {
            "value": "Pathfinder Adventure: Troubles in Otari"
        },
        "statusEffects": [],
        "traits": {
            "ci": [],
            "di": {
                "custom": "sneak attack",
                "selected": {},
                "value": [
                    "critical-hits"
                ]
            },
            "dr": [],
            "dv": [],
            "rarity": {
                "value": "common"
            },
            "size": {
                "value": "med"
            },
            "traits": {
                "custom": "",
                "value": [
                    "magical"
                ]
            }
        }
    },
    "effects": [],
    "flags": {},
    "img": "systems/pf2e/icons/default-icons/hazard.svg",
    "items": [
        {
            "_id": "Fk4R8F6Vr2Lr7mZZ",
            "data": {
                "actionCategory": {
                    "value": ""
                },
                "actionType": {
                    "value": "reaction"
                },
                "actions": {
                    "value": null
                },
                "description": {
                    "value": "<p>(illusion, mental, occult) If a creature that can see moves 10 feet into the affected area, the hazard rolls Stealth (+16) for its initiative.</p>"
                },
                "requirements": {
                    "value": ""
                },
                "rules": [],
                "slug": null,
                "source": {
                    "value": ""
                },
                "traits": {
                    "custom": "",
                    "rarity": {
                        "value": "common"
                    },
                    "value": []
                },
                "trigger": {
                    "value": ""
                },
                "weapon": {
                    "value": ""
                }
            },
            "effects": [],
            "flags": {},
            "img": "systems/pf2e/icons/actions/Reaction.webp",
            "name": "Step into Nightmares",
            "sort": 100000,
            "type": "action"
        }
    ],
    "name": "Nightmare Terrain",
    "token": {
        "disposition": 0,
        "height": 1,
        "img": "systems/pf2e/icons/default-icons/hazard.svg",
        "name": "Nightmare Terrain",
        "width": 1
    },
    "type": "hazard"
}
